what,kind,bundleId,bundleVersion,description,time
started,bundle,com.adobe.flexide.css.core,4.7.0.349722,"com.adobe.flexide.css.core",1494470395032
deactivated,workbench,org.eclipse.ui.workbench,3.104.0.v20130204-164612,"",1494470395079
activated,workbench,org.eclipse.ui.workbench,3.104.0.v20130204-164612,"",1494470395814
started,bundle,com.adobe.model.core,4.5.304901.v20110217,"com.adobe.model.core",1494470398970
started,bundle,org.eclipse.equinox.http.jetty,3.0.1.v20121109-203239,"org.eclipse.equinox.http.jetty",1494470399142
started,bundle,org.eclipse.equinox.http.servlet,1.1.300.v20120912-130548,"org.eclipse.equinox.http.servlet",1494470399216
started,bundle,com.adobe.flashbuilder.http.JettyService,4.7.0.349722,"com.adobe.flashbuilder.http.JettyService",1494470399333
started,bundle,com.adobe.flashbuilder.launching.win8,4.7.0.349722,"com.adobe.flashbuilder.launching.win8",1494470399349
started,bundle,com.adobe.flexbuilder.flex,4.7.0.349722,"com.adobe.flexbuilder.flex",1494470399896
started,bundle,com.adobe.flashbuilder.multiplatform.android.ui,4.7.0.349722,"com.adobe.flashbuilder.multiplatform.android.ui",1494470399911
started,bundle,com.adobe.flexide.project.multiplatform,4.7.0.349722,"com.adobe.flexide.project.multiplatform",1494470399927
started,bundle,com.adobe.flashbuilder.multiplatform.ios.ui,4.7.0.349722,"com.adobe.flashbuilder.multiplatform.ios.ui",1494470399927
started,bundle,com.adobe.flexide.launching,4.7.0.349722,"com.adobe.flexide.launching",1494470399943
started,bundle,com.adobe.flexbuilder.debug,4.7.0.349722,"com.adobe.flexbuilder.debug",1494470400193
started,bundle,com.adobe.flexide.refactoring.core,4.7.0.349722,"com.adobe.flexide.refactoring.core",1494470400271
opened,editor,com.adobe.flexbuilder.mxml.editor,4.7.0.349722,"com.adobe.flexbuilder.editors.mxml.MXMLEditor",1494470400349
started,bundle,com.adobe.flexbuilder.crimson,4.7.0.349722,"com.adobe.flexbuilder.crimson",1494470400443
activated,editor,com.adobe.flexbuilder.mxml.editor,4.7.0.349722,"com.adobe.flexbuilder.editors.mxml.MXMLEditor",1494470400755
executed,command,org.eclipse.ui.ide,3.8.2.v20121106-165923,"org.eclipse.ui.navigate.openResource",1494470400771
activated,view,org.eclipse.ui.navigator.resources,3.4.400.v20120705-114010,"org.eclipse.ui.navigator.ProjectExplorer",1494470443040
opened,editor,com.adobe.flexbuilder.mxml.editor,4.7.0.349722,"com.adobe.flexbuilder.editors.mxml.MXMLEditor",1494470443337
activated,editor,com.adobe.flexbuilder.mxml.editor,4.7.0.349722,"com.adobe.flexbuilder.editors.mxml.MXMLEditor",1494470443478
opened,editor,com.adobe.flexbuilder.as.editor,4.7.0.349722,"com.adobe.flexbuilder.editors.actionscript.ActionScriptEditor",1494470449911
activated,editor,com.adobe.flexbuilder.as.editor,4.7.0.349722,"com.adobe.flexbuilder.editors.actionscript.ActionScriptEditor",1494470450021
opened,editor,com.adobe.flexbuilder.as.editor,4.7.0.349722,"com.adobe.flexbuilder.editors.actionscript.ActionScriptEditor",1494470451894
activated,editor,com.adobe.flexbuilder.as.editor,4.7.0.349722,"com.adobe.flexbuilder.editors.actionscript.ActionScriptEditor",1494470452019
executed,command,org.eclipse.ui,3.104.0.v20121024-145224,"org.eclipse.ui.edit.copy",1494470458978
activated,view,org.eclipse.ui.navigator.resources,3.4.400.v20120705-114010,"org.eclipse.ui.navigator.ProjectExplorer",1494470464143
opened,editor,com.adobe.flexbuilder.mxml.editor,4.7.0.349722,"com.adobe.flexbuilder.editors.mxml.MXMLEditor",1494470464565
activated,editor,com.adobe.flexbuilder.mxml.editor,4.7.0.349722,"com.adobe.flexbuilder.editors.mxml.MXMLEditor",1494470464846
activated,view,org.eclipse.ui.navigator.resources,3.4.400.v20120705-114010,"org.eclipse.ui.navigator.ProjectExplorer",1494470467440
started,bundle,com.adobe.flexide.multiplatform.ios,4.7.0.349722,"com.adobe.flexide.multiplatform.ios",1494470467596
started,bundle,com.adobe.flexide.launching.multiplatform,4.7.0.349722,"com.adobe.flexide.launching.multiplatform",1494470467596
started,bundle,com.adobe.flexide.multiplatform.android,4.7.0.349722,"com.adobe.flexide.multiplatform.android",1494470467612
deactivated,workbench,org.eclipse.ui.workbench,3.104.0.v20130204-164612,"",1494470473426
activated,workbench,org.eclipse.ui.workbench,3.104.0.v20130204-164612,"",1494470474895
executed,command,org.tigris.subversion.subclipse.ui,1.8.21,"org.tigris.subversion.subclipse.ui.commit",1494470474911
activated,editor,com.adobe.flexbuilder.mxml.editor,4.7.0.349722,"com.adobe.flexbuilder.editors.mxml.MXMLEditor",1494470481073
activated,view,org.eclipse.ui.navigator.resources,3.4.400.v20120705-114010,"org.eclipse.ui.navigator.ProjectExplorer",1494470504490
activated,editor,com.adobe.flexbuilder.mxml.editor,4.7.0.349722,"com.adobe.flexbuilder.editors.mxml.MXMLEditor",1494470504724
executed,command,org.eclipse.ui,3.104.0.v20121024-145224,"org.eclipse.ui.edit.paste",1494470513341
opened,view,org.eclipse.ui.ide,3.8.2.v20121106-165923,"org.eclipse.ui.views.ProblemView",1494470514403
activated,view,org.eclipse.ui.ide,3.8.2.v20121106-165923,"org.eclipse.ui.views.ProblemView",1494470514435
error,log,,,"Problems occurred when invoking code from plug-in: ""org.eclipse.core.resources"".",1494470514528
executed,command,org.eclipse.ui,3.104.0.v20121024-145224,"org.eclipse.ui.file.save",1494470514606
activated,editor,com.adobe.flexbuilder.mxml.editor,4.7.0.349722,"com.adobe.flexbuilder.editors.mxml.MXMLEditor",1494470515825
executed,command,org.eclipse.ui,3.104.0.v20121024-145224,"org.eclipse.ui.edit.undo",1494470546472
executed,command,org.eclipse.ui,3.104.0.v20121024-145224,"org.eclipse.ui.edit.cut",1494470594986
executed,command,org.eclipse.ui,3.104.0.v20121024-145224,"org.eclipse.ui.edit.paste",1494470601037
executed,command,org.eclipse.ui,3.104.0.v20121024-145224,"org.eclipse.ui.edit.copy",1494470607940
executed,command,org.eclipse.ui,3.104.0.v20121024-145224,"org.eclipse.ui.edit.paste",1494470609966
executed,command,org.eclipse.ui,3.104.0.v20121024-145224,"org.eclipse.ui.edit.copy",1494470630695
executed,command,org.eclipse.ui,3.104.0.v20121024-145224,"org.eclipse.ui.edit.paste",1494470631617
executed,command,org.eclipse.ui,3.104.0.v20121024-145224,"org.eclipse.ui.edit.cut",1494470639056
executed,command,org.eclipse.ui,3.104.0.v20121024-145224,"org.eclipse.ui.edit.paste",1494470639946
executed,command,org.eclipse.ui,3.104.0.v20121024-145224,"org.eclipse.ui.edit.copy",1494470646202
executed,command,org.eclipse.ui,3.104.0.v20121024-145224,"org.eclipse.ui.edit.paste",1494470647639
executed,command,org.eclipse.ui.workbench.texteditor,3.8.0.v20120523-1310,"org.eclipse.ui.edit.text.delete.line",1494470653196
executed,command,org.eclipse.ui.workbench.texteditor,3.8.0.v20120523-1310,"org.eclipse.ui.edit.text.delete.line",1494470654337
executed,command,org.eclipse.ui.workbench.texteditor,3.8.0.v20120523-1310,"org.eclipse.ui.edit.text.delete.line",1494470654493
executed,command,org.eclipse.ui.workbench.texteditor,3.8.0.v20120523-1310,"org.eclipse.ui.edit.text.delete.line",1494470654696
executed,command,org.eclipse.ui.workbench.texteditor,3.8.0.v20120523-1310,"org.eclipse.ui.edit.text.delete.line",1494470666483
executed,command,org.eclipse.ui.workbench.texteditor,3.8.0.v20120523-1310,"org.eclipse.ui.edit.text.delete.line",1494470666608
executed,command,org.eclipse.ui.workbench.texteditor,3.8.0.v20120523-1310,"org.eclipse.ui.edit.text.delete.line",1494470666858
activated,view,org.eclipse.ui.ide,3.8.2.v20121106-165923,"org.eclipse.ui.views.ProblemView",1494470667249
error,log,,,"Problems occurred when invoking code from plug-in: ""org.eclipse.core.resources"".",1494470667249
executed,command,org.eclipse.ui,3.104.0.v20121024-145224,"org.eclipse.ui.file.save",1494470667296
activated,editor,com.adobe.flexbuilder.mxml.editor,4.7.0.349722,"com.adobe.flexbuilder.editors.mxml.MXMLEditor",1494470672581
executed,command,org.eclipse.ui,3.104.0.v20121024-145224,"org.eclipse.ui.edit.copy",1494470674904
executed,command,org.eclipse.ui,3.104.0.v20121024-145224,"org.eclipse.ui.edit.copy",1494470690430
executed,command,org.eclipse.ui,3.104.0.v20121024-145224,"org.eclipse.ui.edit.paste",1494470697753
executed,command,org.eclipse.ui,3.104.0.v20121024-145224,"org.eclipse.ui.edit.copy",1494470707201
executed,command,org.eclipse.ui,3.104.0.v20121024-145224,"org.eclipse.ui.edit.paste",1494470709123
executed,command,org.eclipse.ui,3.104.0.v20121024-145224,"org.eclipse.ui.edit.undo",1494470720556
executed,command,org.eclipse.ui,3.104.0.v20121024-145224,"org.eclipse.ui.edit.undo",1494470721024
executed,command,org.eclipse.ui,3.104.0.v20121024-145224,"org.eclipse.ui.edit.undo",1494470721946
executed,command,org.eclipse.ui,3.104.0.v20121024-145224,"org.eclipse.ui.edit.undo",1494470731297
executed,command,org.eclipse.ui,3.104.0.v20121024-145224,"org.eclipse.ui.edit.undo",1494470731767
executed,command,org.eclipse.ui,3.104.0.v20121024-145224,"org.eclipse.ui.edit.undo",1494470732174
executed,command,org.eclipse.ui,3.104.0.v20121024-145224,"org.eclipse.ui.edit.undo",1494470732629
executed,command,org.eclipse.ui,3.104.0.v20121024-145224,"org.eclipse.ui.edit.undo",1494470733066
executed,command,org.eclipse.ui,3.104.0.v20121024-145224,"org.eclipse.ui.edit.undo",1494470733472
executed,command,org.eclipse.ui,3.104.0.v20121024-145224,"org.eclipse.ui.edit.undo",1494470734041
executed,command,org.eclipse.ui,3.104.0.v20121024-145224,"org.eclipse.ui.edit.undo",1494470734431
executed,command,org.eclipse.ui,3.104.0.v20121024-145224,"org.eclipse.ui.edit.undo",1494470734775
executed,command,org.eclipse.ui,3.104.0.v20121024-145224,"org.eclipse.ui.edit.undo",1494470735259
executed,command,org.eclipse.ui,3.104.0.v20121024-145224,"org.eclipse.ui.edit.undo",1494470735775
executed,command,org.eclipse.ui,3.104.0.v20121024-145224,"org.eclipse.ui.edit.undo",1494470735916
executed,command,org.eclipse.ui,3.104.0.v20121024-145224,"org.eclipse.ui.edit.undo",1494470736213
executed,command,org.eclipse.ui,3.104.0.v20121024-145224,"org.eclipse.ui.edit.undo",1494470736735
executed,command,org.eclipse.ui,3.104.0.v20121024-145224,"org.eclipse.ui.edit.copy",1494470741459
executed,command,org.eclipse.ui,3.104.0.v20121024-145224,"org.eclipse.ui.edit.paste",1494470744435
executed,command,org.eclipse.ui,3.104.0.v20121024-145224,"org.eclipse.ui.edit.copy",1494470758711
executed,command,org.eclipse.ui,3.104.0.v20121024-145224,"org.eclipse.ui.edit.paste",1494470760467
activated,view,org.eclipse.ui.ide,3.8.2.v20121106-165923,"org.eclipse.ui.views.ProblemView",1494470761030
error,log,,,"Problems occurred when invoking code from plug-in: ""org.eclipse.core.resources"".",1494470761030
executed,command,org.eclipse.ui,3.104.0.v20121024-145224,"org.eclipse.ui.file.save",1494470761092
activated,editor,com.adobe.flexbuilder.mxml.editor,4.7.0.349722,"com.adobe.flexbuilder.editors.mxml.MXMLEditor",1494470762058
executed,command,org.eclipse.ui.workbench.texteditor,3.8.0.v20120523-1310,"org.eclipse.ui.edit.text.delete.line",1494470763758
activated,view,org.eclipse.ui.ide,3.8.2.v20121106-165923,"org.eclipse.ui.views.ProblemView",1494470764008
error,log,,,"Problems occurred when invoking code from plug-in: ""org.eclipse.core.resources"".",1494470764008
executed,command,org.eclipse.ui,3.104.0.v20121024-145224,"org.eclipse.ui.file.save",1494470764111
activated,editor,com.adobe.flexbuilder.mxml.editor,4.7.0.349722,"com.adobe.flexbuilder.editors.mxml.MXMLEditor",1494470765401
executed,command,org.eclipse.ui.workbench.texteditor,3.8.0.v20120523-1310,"org.eclipse.ui.edit.text.delete.line",1494470766417
executed,command,org.eclipse.ui.workbench.texteditor,3.8.0.v20120523-1310,"org.eclipse.ui.edit.text.delete.line",1494470766624
activated,view,org.eclipse.ui.ide,3.8.2.v20121106-165923,"org.eclipse.ui.views.ProblemView",1494470767372
error,log,,,"Problems occurred when invoking code from plug-in: ""org.eclipse.core.resources"".",1494470767372
executed,command,org.eclipse.ui,3.104.0.v20121024-145224,"org.eclipse.ui.file.save",1494470767466
activated,editor,com.adobe.flexbuilder.mxml.editor,4.7.0.349722,"com.adobe.flexbuilder.editors.mxml.MXMLEditor",1494470768809
executed,command,org.eclipse.ui,3.104.0.v20121024-145224,"org.eclipse.ui.edit.cut",1494470832051
activated,editor,com.adobe.flexbuilder.mxml.editor,4.7.0.349722,"com.adobe.flexbuilder.editors.mxml.MXMLEditor",1494470836071
executed,command,org.eclipse.ui,3.104.0.v20121024-145224,"org.eclipse.ui.edit.paste",1494470864314
executed,command,org.eclipse.ui,3.104.0.v20121024-145224,"org.eclipse.ui.edit.delete",1494470866361
activated,view,org.eclipse.ui.ide,3.8.2.v20121106-165923,"org.eclipse.ui.views.ProblemView",1494470866893
error,log,,,"Problems occurred when invoking code from plug-in: ""org.eclipse.core.resources"".",1494470866908
executed,command,org.eclipse.ui,3.104.0.v20121024-145224,"org.eclipse.ui.file.save",1494470866940
activated,editor,com.adobe.flexbuilder.mxml.editor,4.7.0.349722,"com.adobe.flexbuilder.editors.mxml.MXMLEditor",1494470869378
executed,command,org.eclipse.ui,3.104.0.v20121024-145224,"org.eclipse.ui.edit.cut",1494470870472
executed,command,org.eclipse.ui,3.104.0.v20121024-145224,"org.eclipse.ui.edit.paste",1494470872244
activated,view,org.eclipse.ui.ide,3.8.2.v20121106-165923,"org.eclipse.ui.views.ProblemView",1494470872619
error,log,,,"Problems occurred when invoking code from plug-in: ""org.eclipse.core.resources"".",1494470872634
executed,command,org.eclipse.ui,3.104.0.v20121024-145224,"org.eclipse.ui.file.save",1494470872713
activated,editor,com.adobe.flexbuilder.mxml.editor,4.7.0.349722,"com.adobe.flexbuilder.editors.mxml.MXMLEditor",1494470876700
executed,command,org.eclipse.ui,3.104.0.v20121024-145224,"org.eclipse.ui.edit.copy",1494470877294
activated,view,org.eclipse.ui.navigator.resources,3.4.400.v20120705-114010,"org.eclipse.ui.navigator.ProjectExplorer",1494470878855
activated,editor,com.adobe.flexbuilder.mxml.editor,4.7.0.349722,"com.adobe.flexbuilder.editors.mxml.MXMLEditor",1494470879073
deactivated,workbench,org.eclipse.ui.workbench,3.104.0.v20130204-164612,"",1494470884847
executed,command,org.eclipse.ui,3.104.0.v20121024-145224,"org.eclipse.ui.edit.findReplace",1494470884878
executed,command,org.eclipse.ui,3.104.0.v20121024-145224,"org.eclipse.ui.edit.paste",1494470885612
activated,workbench,org.eclipse.ui.workbench,3.104.0.v20130204-164612,"",1494470892618
executed,command,org.eclipse.ui,3.104.0.v20121024-145224,"org.eclipse.ui.edit.copy",1494470942957
executed,command,org.eclipse.ui,3.104.0.v20121024-145224,"org.eclipse.ui.edit.paste",1494470946474
executed,command,org.eclipse.ui,3.104.0.v20121024-145224,"org.eclipse.ui.edit.copy",1494470958921
executed,command,org.eclipse.ui,3.104.0.v20121024-145224,"org.eclipse.ui.edit.paste",1494470960062
executed,command,org.eclipse.ui,3.104.0.v20121024-145224,"org.eclipse.ui.edit.cut",1494470971838
executed,command,org.eclipse.ui,3.104.0.v20121024-145224,"org.eclipse.ui.edit.paste",1494470972479
executed,command,org.eclipse.ui,3.104.0.v20121024-145224,"org.eclipse.ui.edit.undo",1494470973448
executed,command,org.eclipse.ui,3.104.0.v20121024-145224,"org.eclipse.ui.edit.paste",1494470974275
executed,command,org.eclipse.ui,3.104.0.v20121024-145224,"org.eclipse.ui.edit.copy",1494470982049
executed,command,org.eclipse.ui,3.104.0.v20121024-145224,"org.eclipse.ui.edit.paste",1494470988665
activated,view,org.eclipse.ui.ide,3.8.2.v20121106-165923,"org.eclipse.ui.views.ProblemView",1494470989118
error,log,,,"Problems occurred when invoking code from plug-in: ""org.eclipse.core.resources"".",1494470989118
executed,command,org.eclipse.ui,3.104.0.v20121024-145224,"org.eclipse.ui.file.save",1494470989165
activated,editor,com.adobe.flexbuilder.mxml.editor,4.7.0.349722,"com.adobe.flexbuilder.editors.mxml.MXMLEditor",1494470990967
deactivated,workbench,org.eclipse.ui.workbench,3.104.0.v20130204-164612,"",1494471017366
activated,workbench,org.eclipse.ui.workbench,3.104.0.v20130204-164612,"",1494472575196
executed,command,org.eclipse.ui,3.104.0.v20121024-145224,"org.eclipse.ui.edit.copy",1494472582520
executed,command,org.eclipse.ui,3.104.0.v20121024-145224,"org.eclipse.ui.edit.paste",1494472584535
activated,view,org.eclipse.ui.ide,3.8.2.v20121106-165923,"org.eclipse.ui.views.ProblemView",1494472587208
error,log,,,"Problems occurred when invoking code from plug-in: ""org.eclipse.core.resources"".",1494472587208
executed,command,org.eclipse.ui,3.104.0.v20121024-145224,"org.eclipse.ui.file.save",1494472587255
activated,editor,com.adobe.flexbuilder.mxml.editor,4.7.0.349722,"com.adobe.flexbuilder.editors.mxml.MXMLEditor",1494472593858
executed,command,org.eclipse.ui,3.104.0.v20121024-145224,"org.eclipse.ui.edit.delete",1494472596613
activated,view,org.eclipse.ui.ide,3.8.2.v20121106-165923,"org.eclipse.ui.views.ProblemView",1494472597717
error,log,,,"Problems occurred when invoking code from plug-in: ""org.eclipse.core.resources"".",1494472597717
executed,command,org.eclipse.ui,3.104.0.v20121024-145224,"org.eclipse.ui.file.save",1494472597749
deactivated,workbench,org.eclipse.ui.workbench,3.104.0.v20130204-164612,"",1494472600468
activated,workbench,org.eclipse.ui.workbench,3.104.0.v20130204-164612,"",1494472607157
activated,view,org.eclipse.ui.navigator.resources,3.4.400.v20120705-114010,"org.eclipse.ui.navigator.ProjectExplorer",1494472607157
activated,editor,org.eclipse.jdt.ui,3.8.2.v20130107-165834,"org.eclipse.jdt.ui.CompilationUnitEditor",1494472619354
deactivated,workbench,org.eclipse.ui.workbench,3.104.0.v20130204-164612,"",1494472684047
activated,workbench,org.eclipse.ui.workbench,3.104.0.v20130204-164612,"",1494472689635
activated,view,org.eclipse.ui.ide,3.8.2.v20121106-165923,"org.eclipse.ui.views.ProblemView",1494472689635
activated,view,org.eclipse.ui.navigator.resources,3.4.400.v20120705-114010,"org.eclipse.ui.navigator.ProjectExplorer",1494472692500
activated,editor,org.eclipse.jdt.ui,3.8.2.v20130107-165834,"org.eclipse.jdt.ui.CompilationUnitEditor",1494472694797
deactivated,workbench,org.eclipse.ui.workbench,3.104.0.v20130204-164612,"",1494472698242
opened,view,org.eclipse.search,3.8.0.v20120523-1540,"org.eclipse.search.ui.views.SearchView",1494472715871
activated,view,org.eclipse.search,3.8.0.v20120523-1540,"org.eclipse.search.ui.views.SearchView",1494472715934
activated,workbench,org.eclipse.ui.workbench,3.104.0.v20130204-164612,"",1494472716121
executed,command,org.eclipse.search,3.8.0.v20120523-1540,"org.eclipse.search.ui.openSearchDialog",1494472716153
deactivated,workbench,org.eclipse.ui.workbench,3.104.0.v20130204-164612,"",1494472716522
activated,workbench,org.eclipse.ui.workbench,3.104.0.v20130204-164612,"",1494472717194
opened,editor,org.eclipse.jdt.ui,3.8.2.v20130107-165834,"org.eclipse.jdt.ui.CompilationUnitEditor",1494472730633
activated,editor,org.eclipse.jdt.ui,3.8.2.v20130107-165834,"org.eclipse.jdt.ui.CompilationUnitEditor",1494472730773
activated,view,org.eclipse.search,3.8.0.v20120523-1540,"org.eclipse.search.ui.views.SearchView",1494472733452
activated,editor,org.eclipse.jdt.ui,3.8.2.v20130107-165834,"org.eclipse.jdt.ui.CompilationUnitEditor",1494472733671
executed,command,org.eclipse.ui,3.104.0.v20121024-145224,"org.eclipse.ui.edit.copy",1494472737454
executed,command,org.eclipse.ui,3.104.0.v20121024-145224,"org.eclipse.ui.edit.paste",1494472741004
started,bundle,org.eclipse.pde.api.tools,1.0.400.v20120523-2012,"org.eclipse.pde.api.tools",1494472746301
started,bundle,org.eclipse.pde.api.tools.ui,1.0.400.v20120523-2012,"org.eclipse.pde.api.tools.ui",1494472746301
started,bundle,org.eclipse.mylyn.java.ui,3.6.0.v20110608-1400,"org.eclipse.mylyn.java.ui",1494472746328
started,bundle,org.eclipse.mylyn.ide.ui,3.6.0.v20110608-1400,"org.eclipse.mylyn.ide.ui",1494472746333
started,bundle,org.eclipse.jst.ws.jaxws.ui,1.0.201.v201301072322,"org.eclipse.jst.ws.jaxws.ui",1494472746349
started,bundle,org.eclipse.mylyn.resources.ui,3.6.0.v20110608-1400,"org.eclipse.mylyn.resources.ui",1494472748523
activated,view,org.eclipse.ui.ide,3.8.2.v20121106-165923,"org.eclipse.ui.views.ProblemView",1494472752792
error,log,,,"Problems occurred when invoking code from plug-in: ""org.eclipse.core.resources"".",1494472752792
executed,command,org.eclipse.ui,3.104.0.v20121024-145224,"org.eclipse.ui.file.save",1494472752807
activated,editor,org.eclipse.jdt.ui,3.8.2.v20130107-165834,"org.eclipse.jdt.ui.CompilationUnitEditor",1494472753574
activated,view,org.eclipse.ui.navigator.resources,3.4.400.v20120705-114010,"org.eclipse.ui.navigator.ProjectExplorer",1494472763300
activated,editor,org.eclipse.jdt.ui,3.8.2.v20130107-165834,"org.eclipse.jdt.ui.CompilationUnitEditor",1494472763550
activated,view,org.eclipse.ui.navigator.resources,3.4.400.v20120705-114010,"org.eclipse.ui.navigator.ProjectExplorer",1494472767762
activated,editor,org.eclipse.jdt.ui,3.8.2.v20130107-165834,"org.eclipse.jdt.ui.CompilationUnitEditor",1494472768028
activated,view,org.eclipse.ui.navigator.resources,3.4.400.v20120705-114010,"org.eclipse.ui.navigator.ProjectExplorer",1494472775126
activated,editor,com.adobe.flexbuilder.mxml.editor,4.7.0.349722,"com.adobe.flexbuilder.editors.mxml.MXMLEditor",1494472775424
activated,view,org.eclipse.ui.navigator.resources,3.4.400.v20120705-114010,"org.eclipse.ui.navigator.ProjectExplorer",1494472778269
activated,view,org.eclipse.ui.ide,3.8.2.v20121106-165923,"org.eclipse.ui.views.ProblemView",1494472778488
error,log,,,"Problems occurred when invoking code from plug-in: ""org.eclipse.core.resources"".",1494472778488
activated,editor,com.adobe.flexbuilder.mxml.editor,4.7.0.349722,"com.adobe.flexbuilder.editors.mxml.MXMLEditor",1494472778535
activated,view,org.eclipse.ui.navigator.resources,3.4.400.v20120705-114010,"org.eclipse.ui.navigator.ProjectExplorer",1494472782332
activated,view,org.eclipse.ui.ide,3.8.2.v20121106-165923,"org.eclipse.ui.views.ProblemView",1494472782494
error,log,,,"Problems occurred when invoking code from plug-in: ""org.eclipse.core.resources"".",1494472782509
error,log,,,"Problems occurred when invoking code from plug-in: ""org.eclipse.core.resources"".",1494472782525
activated,editor,com.adobe.flexbuilder.mxml.editor,4.7.0.349722,"com.adobe.flexbuilder.editors.mxml.MXMLEditor",1494472782556
deactivated,workbench,org.eclipse.ui.workbench,3.104.0.v20130204-164612,"",1494472786797
activated,workbench,org.eclipse.ui.workbench,3.104.0.v20130204-164612,"",1494472976783
executed,command,org.eclipse.ui.workbench.texteditor,3.8.0.v20120523-1310,"org.eclipse.ui.edit.text.delete.line",1494472990225
executed,command,org.eclipse.ui.workbench.texteditor,3.8.0.v20120523-1310,"org.eclipse.ui.edit.text.delete.line",1494472990430
activated,view,org.eclipse.ui.ide,3.8.2.v20121106-165923,"org.eclipse.ui.views.ProblemView",1494472990711
error,log,,,"Problems occurred when invoking code from plug-in: ""org.eclipse.core.resources"".",1494472990711
executed,command,org.eclipse.ui,3.104.0.v20121024-145224,"org.eclipse.ui.file.save",1494472990945
activated,editor,com.adobe.flexbuilder.mxml.editor,4.7.0.349722,"com.adobe.flexbuilder.editors.mxml.MXMLEditor",1494473002185
executed,command,org.eclipse.ui,3.104.0.v20121024-145224,"org.eclipse.ui.edit.copy",1494473052103
executed,command,org.eclipse.ui,3.104.0.v20121024-145224,"org.eclipse.ui.edit.paste",1494473056929
executed,command,org.eclipse.ui,3.104.0.v20121024-145224,"org.eclipse.ui.edit.copy",1494473064484
executed,command,org.eclipse.ui,3.104.0.v20121024-145224,"org.eclipse.ui.edit.cut",1494473080837
executed,command,org.eclipse.ui,3.104.0.v20121024-145224,"org.eclipse.ui.edit.paste",1494473092537
executed,command,org.eclipse.ui,3.104.0.v20121024-145224,"org.eclipse.ui.edit.delete",1494473097635
executed,command,org.eclipse.ui,3.104.0.v20121024-145224,"org.eclipse.ui.edit.delete",1494473098702
executed,command,org.eclipse.ui,3.104.0.v20121024-145224,"org.eclipse.ui.edit.copy",1494473107654
executed,command,org.eclipse.ui,3.104.0.v20121024-145224,"org.eclipse.ui.edit.delete",1494473109859
executed,command,org.eclipse.ui,3.104.0.v20121024-145224,"org.eclipse.ui.edit.paste",1494473126111
executed,command,org.eclipse.ui,3.104.0.v20121024-145224,"org.eclipse.ui.edit.copy",1494473131554
executed,command,org.eclipse.ui,3.104.0.v20121024-145224,"org.eclipse.ui.edit.paste",1494473132540
executed,command,org.eclipse.ui,3.104.0.v20121024-145224,"org.eclipse.ui.edit.copy",1494473135660
executed,command,org.eclipse.ui,3.104.0.v20121024-145224,"org.eclipse.ui.edit.paste",1494473140556
executed,command,org.eclipse.ui,3.104.0.v20121024-145224,"org.eclipse.ui.edit.paste",1494473146609
executed,command,org.eclipse.ui,3.104.0.v20121024-145224,"org.eclipse.ui.edit.copy",1494473156202
executed,command,org.eclipse.ui,3.104.0.v20121024-145224,"org.eclipse.ui.edit.paste",1494473163461
activated,view,org.eclipse.ui.ide,3.8.2.v20121106-165923,"org.eclipse.ui.views.ProblemView",1494473163820
error,log,,,"Problems occurred when invoking code from plug-in: ""org.eclipse.core.resources"".",1494473163836
executed,command,org.eclipse.ui,3.104.0.v20121024-145224,"org.eclipse.ui.file.save",1494473163929
deactivated,workbench,org.eclipse.ui.workbench,3.104.0.v20130204-164612,"",1494473166007
activated,workbench,org.eclipse.ui.workbench,3.104.0.v20130204-164612,"",1494473369434
activated,editor,com.adobe.flexbuilder.mxml.editor,4.7.0.349722,"com.adobe.flexbuilder.editors.mxml.MXMLEditor",1494473369450
deactivated,workbench,org.eclipse.ui.workbench,3.104.0.v20130204-164612,"",1494473372826
activated,workbench,org.eclipse.ui.workbench,3.104.0.v20130204-164612,"",1494473488007
deactivated,workbench,org.eclipse.ui.workbench,3.104.0.v20130204-164612,"",1494473489480
activated,workbench,org.eclipse.ui.workbench,3.104.0.v20130204-164612,"",1494473497567
executed,command,org.eclipse.ui.ide,3.8.2.v20121106-165923,"org.eclipse.ui.navigate.openResource",1494473497645
deactivated,workbench,org.eclipse.ui.workbench,3.104.0.v20130204-164612,"",1494473501047
activated,workbench,org.eclipse.ui.workbench,3.104.0.v20130204-164612,"",1494473504584
executed,command,org.eclipse.ui.ide,3.8.2.v20121106-165923,"org.eclipse.ui.navigate.openResource",1494473504662
deactivated,workbench,org.eclipse.ui.workbench,3.104.0.v20130204-164612,"",1494473506631
activated,workbench,org.eclipse.ui.workbench,3.104.0.v20130204-164612,"",1494473714451
activated,view,org.eclipse.ui.navigator.resources,3.4.400.v20120705-114010,"org.eclipse.ui.navigator.ProjectExplorer",1494473718056
activated,view,org.eclipse.ui.ide,3.8.2.v20121106-165923,"org.eclipse.ui.views.ProblemView",1494473718259
error,log,,,"Problems occurred when invoking code from plug-in: ""org.eclipse.core.resources"".",1494473718259
activated,editor,org.eclipse.jdt.ui,3.8.2.v20130107-165834,"org.eclipse.jdt.ui.CompilationUnitEditor",1494473718321
deactivated,workbench,org.eclipse.ui.workbench,3.104.0.v20130204-164612,"",1494473746347
activated,workbench,org.eclipse.ui.workbench,3.104.0.v20130204-164612,"",1494473837227
