what,kind,bundleId,bundleVersion,description,time
started,bundle,org.eclipse.jgit,1.1.0.201109151100-r,"org.eclipse.jgit",1495071568394
started,bundle,org.eclipse.mylyn.bugzilla.core,3.6.2.v20110903-0100,"org.eclipse.mylyn.bugzilla.core",1495071568394
started,bundle,org.eclipse.mylyn.bugzilla.ui,3.6.0.v20110608-1400,"org.eclipse.mylyn.bugzilla.ui",1495071568394
started,bundle,org.eclipse.mylyn.commons.identity,0.8.0.v20110608-1400,"org.eclipse.mylyn.commons.identity",1495071568394
started,bundle,org.eclipse.mylyn.commons.net,3.6.0.v20110608-1400,"org.eclipse.mylyn.commons.net",1495071568394
started,bundle,org.eclipse.mylyn.commons.ui,3.6.1.v20110720-0100,"org.eclipse.mylyn.commons.ui",1495071568394
started,bundle,org.eclipse.mylyn.context.core,3.6.1.v20110720-0100,"org.eclipse.mylyn.context.core",1495071568394
started,bundle,org.eclipse.mylyn.context.ui,3.6.0.v20110608-1400,"org.eclipse.mylyn.context.ui",1495071568394
started,bundle,org.eclipse.mylyn.monitor.ui,3.6.0.v20110608-1400,"org.eclipse.mylyn.monitor.ui",1495071568394
started,bundle,org.eclipse.mylyn.tasks.ui,3.6.2.v20110826-0100,"org.eclipse.mylyn.tasks.ui",1495071568394
started,bundle,org.eclipse.mylyn.team.ui,3.6.1.v20110825-0100,"org.eclipse.mylyn.team.ui",1495071568394
started,bundle,org.eclipse.team.cvs.core,3.3.400.I20110510-0800,"org.eclipse.team.cvs.core",1495071568394
started,bundle,org.eclipse.team.cvs.ui,3.3.400.I20110510-0800,"org.eclipse.team.cvs.ui",1495071568394
started,bundle,com.adobe.flash.compiler,4.7.0.349722,"com.adobe.flash.compiler",1495071568410
started,bundle,com.adobe.flashbuilder.http.JettyService,4.7.0.349722,"com.adobe.flashbuilder.http.JettyService",1495071568410
started,bundle,com.adobe.flashbuilder.launching.win8,4.7.0.349722,"com.adobe.flashbuilder.launching.win8",1495071568410
started,bundle,com.adobe.flashbuilder.multiplatform.android.ui,4.7.0.349722,"com.adobe.flashbuilder.multiplatform.android.ui",1495071568410
started,bundle,com.adobe.flashbuilder.multiplatform.ios.ui,4.7.0.349722,"com.adobe.flashbuilder.multiplatform.ios.ui",1495071568410
started,bundle,com.adobe.flexbuilder.DCDService,4.7.0.349722,"com.adobe.flexbuilder.DCDService",1495071568425
started,bundle,com.adobe.flexbuilder.as.editor,4.7.0.349722,"com.adobe.flexbuilder.as.editor",1495071568425
started,bundle,com.adobe.flexbuilder.codemodel,4.7.0.349722,"com.adobe.flexbuilder.codemodel",1495071568425
started,bundle,com.adobe.flexbuilder.dcrad,4.7.0.349722,"com.adobe.flexbuilder.dcrad",1495071568425
started,bundle,com.adobe.flexbuilder.debug,4.7.0.349722,"com.adobe.flexbuilder.debug",1495071568441
started,bundle,com.adobe.flexbuilder.debug.ui,4.7.0.349722,"com.adobe.flexbuilder.debug.ui",1495071568441
started,bundle,com.adobe.flexbuilder.editorcore,4.7.0.349722,"com.adobe.flexbuilder.editorcore",1495071568441
started,bundle,com.adobe.flexbuilder.editors.derived,4.7.0.349722,"com.adobe.flexbuilder.editors.derived",1495071568441
started,bundle,com.adobe.flexbuilder.exportimport,4.7.0.349722,"com.adobe.flexbuilder.exportimport",1495071568456
started,bundle,com.adobe.flexbuilder.flashbridge,4.7.0.349722,"com.adobe.flexbuilder.flashbridge",1495071568456
started,bundle,com.adobe.flexbuilder.flex,4.7.0.349722,"com.adobe.flexbuilder.flex",1495071568456
started,bundle,com.adobe.flexbuilder.multisdk,4.7.0.349722,"com.adobe.flexbuilder.multisdk",1495071568456
started,bundle,com.adobe.flexbuilder.mxml.editor,4.7.0.349722,"com.adobe.flexbuilder.mxml.editor",1495071568472
started,bundle,com.adobe.flexbuilder.mxmlmodel,4.7.0.349722,"com.adobe.flexbuilder.mxmlmodel",1495071568472
started,bundle,com.adobe.flexbuilder.project,4.7.0.349722,"com.adobe.flexbuilder.project",1495071568472
started,bundle,com.adobe.flexbuilder.project.ui,4.7.0.349722,"com.adobe.flexbuilder.project.ui",1495071568472
started,bundle,com.adobe.flexbuilder.ui,4.7.0.349722,"com.adobe.flexbuilder.ui",1495071568472
started,bundle,com.adobe.flexbuilder.utils.osnative,4.7.0.349722,"com.adobe.flexbuilder.utils.osnative",1495071568472
started,bundle,com.adobe.flexide.amt,4.7.0.349722,"com.adobe.flexide.amt",1495071568488
started,bundle,com.adobe.flexide.as.core,4.7.0.349722,"com.adobe.flexide.as.core",1495071568488
started,bundle,com.adobe.flexide.codemodel.bridge,4.7.0.349722,"com.adobe.flexide.codemodel.bridge",1495071568488
started,bundle,com.adobe.flexide.css.core,4.7.0.349722,"com.adobe.flexide.css.core",1495071568488
started,bundle,com.adobe.flexide.editorcore,4.7.0.349722,"com.adobe.flexide.editorcore",1495071568488
started,bundle,com.adobe.flexide.launching,4.7.0.349722,"com.adobe.flexide.launching",1495071568503
started,bundle,com.adobe.flexide.mxml.core,4.7.0.349722,"com.adobe.flexide.mxml.core",1495071568503
started,bundle,com.adobe.flexide.nativelibs,4.7.0.349722,"com.adobe.flexide.nativelibs",1495071568503
started,bundle,com.adobe.flexide.project.multiplatform,4.7.0.349722,"com.adobe.flexide.project.multiplatform",1495071568503
started,bundle,com.adobe.flexide.refactoring.core,4.7.0.349722,"com.adobe.flexide.refactoring.core",1495071568503
started,bundle,com.adobe.model.core,4.5.304901.v20110217,"com.adobe.model.core",1495071568519
started,bundle,org.eclipse.equinox.event,1.2.100.v20110502,"org.eclipse.equinox.event",1495071568519
started,bundle,org.eclipse.update.core,3.2.500.v20110330,"org.eclipse.update.core",1495071568519
started,bundle,org.eclipse.update.scheduler,3.2.300.v20100512,"org.eclipse.update.scheduler",1495071568519
started,bundle,org.eclipse.wb.discovery.core,1.1.0.r37x201109091028,"org.eclipse.wb.discovery.core",1495071568519
started,bundle,org.eclipse.wb.discovery.ui,1.1.0.r37x201109091028,"org.eclipse.wb.discovery.ui",1495071568519
os,sysinfo,,,"win32",1495071568519
arch,sysinfo,,,"x86_64",1495071568519
ws,sysinfo,,,"win32",1495071568519
locale,sysinfo,,,"en_US",1495071568519
processors,sysinfo,,,"8",1495071568519
java.runtime.name,sysinfo,,,"Java(TM) SE Runtime Environment",1495071568519
java.runtime.version,sysinfo,,,"1.6.0_71-b10",1495071568519
java.specification.name,sysinfo,,,"Java Platform API Specification",1495071568519
java.specification.vendor,sysinfo,,,"Sun Microsystems Inc.",1495071568519
java.specification.version,sysinfo,,,"1.6",1495071568519
java.vendor,sysinfo,,,"Oracle Corporation",1495071568519
java.version,sysinfo,,,"1.6.0_71",1495071568519
java.vm.info,sysinfo,,,"compiled mode",1495071568519
java.vm.name,sysinfo,,,"Oracle JRockit(R)",1495071568519
java.vm.specification.name,sysinfo,,,"Java Virtual Machine Specification",1495071568519
java.vm.specification.vendor,sysinfo,,,"Sun Microsystems Inc.",1495071568519
java.vm.specification.version,sysinfo,,,"1.0",1495071568519
java.vm.vendor,sysinfo,,,"Oracle Corporation",1495071568519
java.vm.version,sysinfo,,,"R28.3.1-12-159557-1.6.0_71-20131209-2113-windows-x86_64",1495071568519
started,bundle,org.eclipse.epp.usagedata.ui,1.3.1.R201106061540,"org.eclipse.epp.usagedata.ui",1495071569520
deactivated,workbench,org.eclipse.ui.workbench,3.104.0.v20130204-164612,"",1495071569708
activated,workbench,org.eclipse.ui.workbench,3.104.0.v20130204-164612,"",1495071571415
activated,view,org.eclipse.ui.navigator.resources,3.4.400.v20120705-114010,"org.eclipse.ui.navigator.ProjectExplorer",1495071571430
started,bundle,com.adobe.flexbuilder.crimson,4.7.0.349722,"com.adobe.flexbuilder.crimson",1495071575837
closed,editor,com.adobe.flexbuilder.project.ui,4.7.0.349722,"com.adobe.flexbuilder.ui.StartPage",1495071576087
closed,view,org.eclipse.ui.ide,3.8.2.v20121106-165923,"org.eclipse.ui.views.ProblemView",1495071576165
closed,view,org.eclipse.ui.views,3.6.100.v20120705-114010,"org.eclipse.ui.views.ContentOutline",1495071576188
closed,editor,com.adobe.flexbuilder.mxml.editor,4.7.0.349722,"com.adobe.flexbuilder.editors.mxml.MXMLEditor",1495071576198
closed,view,org.eclipse.ui.navigator.resources,3.4.400.v20120705-114010,"org.eclipse.ui.navigator.ProjectExplorer",1495071576429
closed,workbench,org.eclipse.ui.workbench,3.104.0.v20130204-164612,"",1495071576554
stopped,bundle,org.eclipse.jst.j2ee.xdoclet.runtime,1.1.300.v201004280700,"org.eclipse.jst.j2ee.xdoclet.runtime",1495071577106
stopped,bundle,org.eclipse.jst.j2ee.ejb.annotations.xdoclet,1.2.200.v201103302125,"org.eclipse.jst.j2ee.ejb.annotations.xdoclet",1495071577106
stopped,bundle,org.eclipse.jst.server.generic.jboss,1.6.1.v200904151730,"org.eclipse.jst.server.generic.jboss",1495071577121
stopped,bundle,org.eclipse.jst.server.generic.jonas,1.5.205.v200805140145,"org.eclipse.jst.server.generic.jonas",1495071577121
stopped,bundle,org.eclipse.jst.server.generic.oc4j,1.5.206.v20090812,"org.eclipse.jst.server.generic.oc4j",1495071577121
stopped,bundle,org.eclipse.jst.server.websphere.core,1.0.302.v20080620,"org.eclipse.jst.server.websphere.core",1495071577137
stopped,bundle,org.eclipse.jst.server.generic.ui,1.0.505.v20100428,"org.eclipse.jst.server.generic.ui",1495071577137
stopped,bundle,org.eclipse.jst.server.generic.core,1.0.700.v20101219,"org.eclipse.jst.server.generic.core",1495071577137
stopped,bundle,org.eclipse.datatools.connectivity.oda.template.ui,3.2.4.v201301111130,"org.eclipse.datatools.connectivity.oda.template.ui",1495071577137
stopped,bundle,org.eclipse.pde.api.tools.ui,1.0.400.v20120523-2012,"org.eclipse.pde.api.tools.ui",1495071577137
stopped,bundle,org.eclipse.pde.ds.ui,1.0.200.v20120530-1435,"org.eclipse.pde.ds.ui",1495071577137
stopped,bundle,org.eclipse.pde.runtime,3.4.300.v20120523-1453,"org.eclipse.pde.runtime",1495071577137
stopped,bundle,org.eclipse.pde.ua.ui,1.0.200.v20120523-1453,"org.eclipse.pde.ua.ui",1495071577153
stopped,bundle,org.eclipse.pde.ui.templates,3.4.500.v20120523-2012,"org.eclipse.pde.ui.templates",1495071577153
stopped,bundle,org.eclipse.pde.ui,3.7.2.v20130121-093123,"org.eclipse.pde.ui",1495071577153
stopped,bundle,org.eclipse.mylyn.ide.ant,3.6.0.v20110608-1400,"org.eclipse.mylyn.ide.ant",1495071577153
stopped,bundle,org.eclipse.ant.ui,3.5.301.v20121210-210948,"org.eclipse.ant.ui",1495071577153
stopped,bundle,org.eclipse.ant.launching,1.0.200.v20120530-1204,"org.eclipse.ant.launching",1495071577168
stopped,bundle,org.eclipse.compare.win32,1.0.200.v20120914-154749,"org.eclipse.compare.win32",1495071577168
stopped,bundle,org.eclipse.equinox.p2.ui.sdk,1.0.200.v20120515-1650,"org.eclipse.equinox.p2.ui.sdk",1495071577168
stopped,bundle,org.eclipse.jst.server.tomcat.ui,1.1.300.v20120420_1012,"org.eclipse.jst.server.tomcat.ui",1495071577168
stopped,bundle,org.eclipse.jst.server.ui,1.1.202.v20110419,"org.eclipse.jst.server.ui",1495071577168
stopped,bundle,org.eclipse.mylyn.java.tasks,3.6.0.v20110608-1400,"org.eclipse.mylyn.java.tasks",1495071577168
stopped,bundle,org.eclipse.mylyn.java.ui,3.6.0.v20110608-1400,"org.eclipse.mylyn.java.ui",1495071577168
stopped,bundle,org.eclipse.jdt.junit,3.7.100.v20120523-1543,"org.eclipse.jdt.junit",1495071577168
stopped,bundle,org.eclipse.jpt.jpa.eclipselink.ui,2.2.1.v201208222210,"org.eclipse.jpt.jpa.eclipselink.ui",1495071577184
stopped,bundle,org.eclipse.jpt.jpa.eclipselink.core,2.2.1.v201208222210,"org.eclipse.jpt.jpa.eclipselink.core",1495071577184
stopped,bundle,org.eclipse.jpt.jpa.ui,3.2.2.v201301092252,"org.eclipse.jpt.jpa.ui",1495071577184
stopped,bundle,org.eclipse.m2e.wtp.jpa,1.0.0.e42-20130613-0136,"org.eclipse.m2e.wtp.jpa",1495071577184
stopped,bundle,org.eclipse.jpt.jpa.core,3.2.2.v201301092252,"org.eclipse.jpt.jpa.core",1495071577199
stopped,bundle,org.eclipse.jpt.jpa.db,2.1.101.v201208222210,"org.eclipse.jpt.jpa.db",1495071577199
stopped,bundle,org.eclipse.datatools.enablement.jdt.classpath,1.0.1.v201107221501,"org.eclipse.datatools.enablement.jdt.classpath",1495071577199
stopped,bundle,org.eclipse.jdt.apt.ui,3.3.300.v20120522-1651,"org.eclipse.jdt.apt.ui",1495071577199
stopped,bundle,org.eclipse.datatools.enablement.sybase.asa.schemaobjecteditor.examples,2.5.0.200810071,"org.eclipse.datatools.enablement.sybase.asa.schemaobjecteditor.examples",1495071577215
stopped,bundle,org.eclipse.datatools.sqltools.debugger.core.ui,1.0.0.v201003161000,"org.eclipse.datatools.sqltools.debugger.core.ui",1495071577215
stopped,bundle,org.eclipse.jst.server.preview.adapter,1.1.201.v20130123_1813,"org.eclipse.jst.server.preview.adapter",1495071577215
stopped,bundle,org.eclipse.wst.xsl.jaxp.debug.ui,1.0.200.v201103081922,"org.eclipse.wst.xsl.jaxp.debug.ui",1495071577215
stopped,bundle,org.eclipse.m2e.launching,1.4.0.20130601-0317,"org.eclipse.m2e.launching",1495071577215
stopped,bundle,org.eclipse.jdt.debug.ui,3.6.100.v20120530-1425,"org.eclipse.jdt.debug.ui",1495071577215
stopped,bundle,org.eclipse.jpt.dbws.eclipselink.ui,1.0.201.v201208222210,"org.eclipse.jpt.dbws.eclipselink.ui",1495071577215
stopped,bundle,org.eclipse.jpt.jaxb.eclipselink.ui,1.3.1.v201208222210,"org.eclipse.jpt.jaxb.eclipselink.ui",1495071577231
stopped,bundle,org.eclipse.jpt.jaxb.ui,1.3.1.v201208222210,"org.eclipse.jpt.jaxb.ui",1495071577231
stopped,bundle,org.eclipse.jpt.common.ui,1.2.1.v201208222210,"org.eclipse.jpt.common.ui",1495071577231
stopped,bundle,org.eclipse.jst.common.annotations.ui,1.1.300.v201002081900,"org.eclipse.jst.common.annotations.ui",1495071577231
stopped,bundle,org.eclipse.jst.j2ee.ejb.annotations.ui,1.1.200.v201004290730,"org.eclipse.jst.j2ee.ejb.annotations.ui",1495071577231
stopped,bundle,org.eclipse.jst.ejb.ui,1.1.700.v201201190500,"org.eclipse.jst.ejb.ui",1495071577246
stopped,bundle,org.eclipse.jst.ws.axis.creation.ui,1.0.750.v201204120428,"org.eclipse.jst.ws.axis.creation.ui",1495071577246
stopped,bundle,org.eclipse.jst.ws.axis.consumption.ui,1.0.700.v201204181727,"org.eclipse.jst.ws.axis.consumption.ui",1495071577246
stopped,bundle,org.eclipse.jst.ws.axis2.creation.ui,1.0.104.v201004211805,"org.eclipse.jst.ws.axis2.creation.ui",1495071577246
stopped,bundle,org.eclipse.jst.ws.axis2.consumption.ui,1.0.103.v201004211805,"org.eclipse.jst.ws.axis2.consumption.ui",1495071577246
stopped,bundle,org.eclipse.jst.ws.axis2.creation.core,1.0.106.v201004211805,"org.eclipse.jst.ws.axis2.creation.core",1495071577262
stopped,bundle,org.eclipse.jst.ws.axis2.consumption.core,1.0.105.v201004211805,"org.eclipse.jst.ws.axis2.consumption.core",1495071577262
stopped,bundle,org.eclipse.jst.ws.cxf.creation.ui,1.0.201.v201301072322,"org.eclipse.jst.ws.cxf.creation.ui",1495071577262
stopped,bundle,org.eclipse.jst.ws.creation.ui,1.0.700.v201205041550,"org.eclipse.jst.ws.creation.ui",1495071577262
stopped,bundle,org.eclipse.jst.ws.cxf.consumption.ui,1.0.200.v201201312103,"org.eclipse.jst.ws.cxf.consumption.ui",1495071577262
stopped,bundle,org.eclipse.jst.ws.consumption.ui,1.1.600.v201301232254,"org.eclipse.jst.ws.consumption.ui",1495071577278
stopped,bundle,org.eclipse.jst.j2ee.webservice.ui,1.1.500.v201105122000,"org.eclipse.jst.j2ee.webservice.ui",1495071577278
stopped,bundle,org.eclipse.jst.servlet.ui,1.1.600.v201202011057,"org.eclipse.jst.servlet.ui",1495071577278
stopped,bundle,org.eclipse.jst.ws.jaxws.dom.integration,1.0.200.v201109042201,"org.eclipse.jst.ws.jaxws.dom.integration",1495071577278
stopped,bundle,org.eclipse.jst.jee.ui,1.0.500.v201205170400,"org.eclipse.jst.jee.ui",1495071577278
stopped,bundle,org.eclipse.jst.j2ee.navigator.ui,1.1.600.v201203142300,"org.eclipse.jst.j2ee.navigator.ui",1495071577278
stopped,bundle,org.eclipse.jst.j2ee.jca.ui,1.1.400.v201004150700,"org.eclipse.jst.j2ee.jca.ui",1495071577278
stopped,bundle,org.eclipse.jst.j2ee.ui,1.1.600.v201205170400,"org.eclipse.jst.j2ee.ui",1495071577278
stopped,bundle,org.eclipse.jst.jsf.facelet.ui,1.1.0.v201301161500,"org.eclipse.jst.jsf.facelet.ui",1495071577278
stopped,bundle,org.eclipse.jst.jsf.ui,1.4.0.v201301161500,"org.eclipse.jst.jsf.ui",1495071577278
stopped,bundle,org.eclipse.jst.ws.jaxrs.ui,1.0.500.v201205020140,"org.eclipse.jst.ws.jaxrs.ui",1495071577278
stopped,bundle,org.eclipse.jst.common.project.facet.ui,1.4.200.v201008182133,"org.eclipse.jst.common.project.facet.ui",1495071577278
stopped,bundle,org.eclipse.jst.common.ui,1.0.201.v201208292200,"org.eclipse.jst.common.ui",1495071577293
stopped,bundle,org.eclipse.jst.j2ee.ejb.annotations.emitter,1.1.200.v200909290826,"org.eclipse.jst.j2ee.ejb.annotations.emitter",1495071577293
stopped,bundle,org.eclipse.jst.jsf.apache.trinidad.tagsupport,1.2.0.v201301161500,"org.eclipse.jst.jsf.apache.trinidad.tagsupport",1495071577293
stopped,bundle,org.eclipse.jst.jsf.facesconfig.ui,1.3.0.v201301161500,"org.eclipse.jst.jsf.facesconfig.ui",1495071577293
stopped,bundle,org.eclipse.jst.pagedesigner.jsf.ui,1.3.0.v201301161500,"org.eclipse.jst.pagedesigner.jsf.ui",1495071577309
stopped,bundle,org.eclipse.jst.pagedesigner,1.4.0.v201301161500,"org.eclipse.jst.pagedesigner",1495071577309
stopped,bundle,org.eclipse.jst.jsf.common.ui,1.3.0.v201301161500,"org.eclipse.jst.jsf.common.ui",1495071577309
stopped,bundle,org.eclipse.jst.jsf.facelet.core,1.1.0.v201301161500,"org.eclipse.jst.jsf.facelet.core",1495071577324
stopped,bundle,org.eclipse.m2e.wtp.jsf,1.0.0.20130613-0136,"org.eclipse.m2e.wtp.jsf",1495071577324
stopped,bundle,org.eclipse.jst.jsf.core,1.5.0.v201301161500,"org.eclipse.jst.jsf.core",1495071577324
stopped,bundle,org.eclipse.jst.jsf.standard.tagsupport,1.3.0.v201301161500,"org.eclipse.jst.jsf.standard.tagsupport",1495071577324
stopped,bundle,org.eclipse.jst.pagedesigner.jsp.core,1.3.0.v201301161500,"org.eclipse.jst.pagedesigner.jsp.core",1495071577324
stopped,bundle,org.eclipse.jst.jsf.common,1.3.0.v201301161500,"org.eclipse.jst.jsf.common",1495071577340
stopped,bundle,org.eclipse.wst.jsdt.web.support.jsp,1.0.500.v201204260100,"org.eclipse.wst.jsdt.web.support.jsp",1495071577340
stopped,bundle,org.eclipse.jst.jsp.ui,1.1.702.v201301101836,"org.eclipse.jst.jsp.ui",1495071577340
stopped,bundle,org.eclipse.jst.ws.cxf.consumption.core,1.0.201.v201301072322,"org.eclipse.jst.ws.cxf.consumption.core",1495071577340
stopped,bundle,org.eclipse.jst.ws.cxf.creation.core,1.0.201.v201301072322,"org.eclipse.jst.ws.cxf.creation.core",1495071577340
stopped,bundle,org.eclipse.jst.ws.cxf.ui,1.0.200.v201203062228,"org.eclipse.jst.ws.cxf.ui",1495071577340
stopped,bundle,org.eclipse.jst.ws.cxf.core,1.1.1.v201301082115,"org.eclipse.jst.ws.cxf.core",1495071577356
stopped,bundle,org.eclipse.jst.ws.jaxb.core,1.0.100.v201104031139,"org.eclipse.jst.ws.jaxb.core",1495071577356
stopped,bundle,org.eclipse.jst.ws.jaxws.ui,1.0.201.v201301072322,"org.eclipse.jst.ws.jaxws.ui",1495071577356
stopped,bundle,org.eclipse.jst.ws.jaxws.core,1.0.201.v201301072322,"org.eclipse.jst.ws.jaxws.core",1495071577356
stopped,bundle,org.eclipse.jst.ws.annotations.core,1.2.0.v201203272107,"org.eclipse.jst.ws.annotations.core",1495071577356
stopped,bundle,org.eclipse.jst.ws.axis2.ui,1.0.303.v201003110431,"org.eclipse.jst.ws.axis2.ui",1495071577356
stopped,bundle,org.eclipse.jst.ws.uddiregistry,1.0.500.v201004211805,"org.eclipse.jst.ws.uddiregistry",1495071577356
stopped,bundle,org.eclipse.jst.ws.ui,1.0.403.v201004211805,"org.eclipse.jst.ws.ui",1495071577356
stopped,bundle,org.eclipse.m2e.wtp.jaxrs,1.0.0.20130613-0136,"org.eclipse.m2e.wtp.jaxrs",1495071577371
stopped,bundle,org.eclipse.m2e.wtp,1.0.0.20130613-0136,"org.eclipse.m2e.wtp",1495071577371
stopped,bundle,org.jboss.tools.maven.apt.ui,1.0.1.201209200721,"org.jboss.tools.maven.apt.ui",1495071577371
stopped,bundle,org.jboss.tools.maven.apt.core,1.0.1.201209200721,"org.jboss.tools.maven.apt.core",1495071577371
stopped,bundle,org.eclipse.m2e.jdt,1.4.0.20130601-0317,"org.eclipse.m2e.jdt",1495071577371
stopped,bundle,org.eclipse.m2e.refactoring,1.4.0.20130601-0317,"org.eclipse.m2e.refactoring",1495071577371
stopped,bundle,org.granite.builder,2.2.0.SP2,"org.granite.builder",1495071577387
stopped,bundle,org.eclipse.wb.swing.databinding,1.1.0.r37x201109091143,"org.eclipse.wb.swing.databinding",1495071577387
stopped,bundle,org.eclipse.wb.core.databinding,1.1.0.r37x201109091012,"org.eclipse.wb.core.databinding",1495071577387
stopped,bundle,org.eclipse.wb.swing.FormLayout,1.1.0.r37x201109091143,"org.eclipse.wb.swing.FormLayout",1495071577387
stopped,bundle,org.eclipse.wb.swing.MigLayout,1.1.0.r37x201109091143,"org.eclipse.wb.swing.MigLayout",1495071577387
stopped,bundle,org.eclipse.wb.swing.java6,1.1.0.r37x201109091143,"org.eclipse.wb.swing.java6",1495071577387
stopped,bundle,org.eclipse.wb.swing.jsr296,1.1.0.r37x201109091143,"org.eclipse.wb.swing.jsr296",1495071577387
stopped,bundle,org.eclipse.wb.swing,1.1.0.r37x201109091143,"org.eclipse.wb.swing",1495071577387
stopped,bundle,org.eclipse.wb.core.ui,1.1.0.r37x201109091028,"org.eclipse.wb.core.ui",1495071577387
stopped,bundle,org.eclipse.wb.layout.group,1.1.0.r37x201109091112,"org.eclipse.wb.layout.group",1495071577387
stopped,bundle,org.eclipse.wb.os.win32,1.1.0.r37x201109091012,"org.eclipse.wb.os.win32",1495071577387
stopped,bundle,org.eclipse.wb.core,1.1.0.r37x201109091012,"org.eclipse.wb.core",1495071577387
stopped,bundle,org.eclipse.jdt.ui,3.8.2.v20130107-165834,"org.eclipse.jdt.ui",1495071577387
stopped,bundle,org.eclipse.rse.importexport,1.2.300.201205241511,"org.eclipse.rse.importexport",1495071577387
stopped,bundle,org.eclipse.rse.subsystems.shells.telnet,1.2.300.201205062159,"org.eclipse.rse.subsystems.shells.telnet",1495071577403
stopped,bundle,org.eclipse.rse.useractions,1.1.400.201205062159,"org.eclipse.rse.useractions",1495071577403
stopped,bundle,org.eclipse.rse.shells.ui,3.0.401.201212171813,"org.eclipse.rse.shells.ui",1495071577403
stopped,bundle,org.eclipse.rse.files.ui,3.2.101.201302012126,"org.eclipse.rse.files.ui",1495071577403
stopped,bundle,org.eclipse.rse.processes.ui,3.0.400.201205062159,"org.eclipse.rse.processes.ui",1495071577403
activated,perspective,org.eclipse.jst.j2ee.ui,,"org.eclipse.jst.j2ee.J2EEPerspective",1496306491055
started,bundle,org.eclipse.osgi,3.8.2.v20130124-134944,"org.eclipse.osgi",1496306491071
started,bundle,org.eclipse.equinox.simpleconfigurator,1.0.301.v20120914-163612,"org.eclipse.equinox.simpleconfigurator",1496306491071
started,bundle,com.ibm.icu,4.4.2.v20110823,"com.ibm.icu",1496306491071
started,bundle,org.apache.felix.gogo.command,0.8.0.v201108120515,"org.apache.felix.gogo.command",1496306491071
started,bundle,org.apache.felix.gogo.runtime,0.8.0.v201108120515,"org.apache.felix.gogo.runtime",1496306491071
started,bundle,org.apache.felix.gogo.shell,0.8.0.v201110170705,"org.apache.felix.gogo.shell",1496306491071
started,bundle,org.eclipse.compare,3.5.301.v20130125-135424,"org.eclipse.compare",1496306491071
started,bundle,org.eclipse.compare.core,3.5.200.v20120522-1148,"org.eclipse.compare.core",1496306491071
started,bundle,org.eclipse.core.contenttype,3.4.200.v20120523-2004,"org.eclipse.core.contenttype",1496306491071
started,bundle,org.eclipse.core.databinding.observable,1.4.1.v20120521-2329,"org.eclipse.core.databinding.observable",1496306491071
started,bundle,org.eclipse.core.expressions,3.4.401.v20120912-155018,"org.eclipse.core.expressions",1496306491071
started,bundle,org.eclipse.core.filebuffers,3.5.200.v20120523-1310,"org.eclipse.core.filebuffers",1496306491071
started,bundle,org.eclipse.core.filesystem,1.3.200.v20130115-145044,"org.eclipse.core.filesystem",1496306491071
started,bundle,org.eclipse.core.jobs,3.5.300.v20120912-155018,"org.eclipse.core.jobs",1496306491071
started,bundle,org.eclipse.core.net,1.2.200.v20120914-093638,"org.eclipse.core.net",1496306491071
started,bundle,org.eclipse.core.resources,3.8.1.v20121114-124432,"org.eclipse.core.resources",1496306491071
started,bundle,org.eclipse.core.runtime,3.8.0.v20120912-155025,"org.eclipse.core.runtime",1496306491071
started,bundle,org.eclipse.core.runtime.compatibility,3.2.200.v20120521-2346,"org.eclipse.core.runtime.compatibility",1496306491071
started,bundle,org.eclipse.debug.core,3.7.100.v20120521-2012,"org.eclipse.debug.core",1496306491071
started,bundle,org.eclipse.debug.ui,3.8.2.v20130130-171415,"org.eclipse.debug.ui",1496306491071
started,bundle,org.eclipse.e4.core.commands,0.10.1.v20120523-1955,"org.eclipse.e4.core.commands",1496306491071
started,bundle,org.eclipse.e4.core.contexts,1.2.0.v20121221-192508,"org.eclipse.e4.core.contexts",1496306491071
started,bundle,org.eclipse.e4.core.di,1.2.0.v20121024-173149,"org.eclipse.e4.core.di",1496306491071
started,bundle,org.eclipse.e4.core.services,1.0.0.v20120521-2346,"org.eclipse.e4.core.services",1496306491071
started,bundle,org.eclipse.e4.ui.bindings,0.10.3.v20130123-162658,"org.eclipse.e4.ui.bindings",1496306491086
started,bundle,org.eclipse.e4.ui.css.swt,0.10.3.v20130123-162658,"org.eclipse.e4.ui.css.swt",1496306491086
started,bundle,org.eclipse.e4.ui.css.swt.theme,0.9.4.v20130123-162658,"org.eclipse.e4.ui.css.swt.theme",1496306491086
started,bundle,org.eclipse.e4.ui.di,0.10.1.v20120523-1955,"org.eclipse.e4.ui.di",1496306491086
started,bundle,org.eclipse.e4.ui.model.workbench,0.10.1.v20120523-1955,"org.eclipse.e4.ui.model.workbench",1496306491086
started,bundle,org.eclipse.e4.ui.services,0.10.3.v20130123-162658,"org.eclipse.e4.ui.services",1496306491086
started,bundle,org.eclipse.e4.ui.workbench,0.11.0.v20130125-100758,"org.eclipse.e4.ui.workbench",1496306491086
started,bundle,org.eclipse.e4.ui.workbench.addons.swt,0.10.3.v20130124-185622,"org.eclipse.e4.ui.workbench.addons.swt",1496306491086
started,bundle,org.eclipse.e4.ui.workbench.renderers.swt,0.10.3.v20130124-170312,"org.eclipse.e4.ui.workbench.renderers.swt",1496306491086
started,bundle,org.eclipse.e4.ui.workbench.swt,0.10.3.v20130124-133900,"org.eclipse.e4.ui.workbench.swt",1496306491086
started,bundle,org.eclipse.emf.common,2.8.0.v20130125-0546,"org.eclipse.emf.common",1496306491086
started,bundle,org.eclipse.emf.common.ui,2.7.0.v20130125-0826,"org.eclipse.emf.common.ui",1496306491086
started,bundle,org.eclipse.emf.ecore,2.8.3.v20130125-0546,"org.eclipse.emf.ecore",1496306491102
started,bundle,org.eclipse.emf.ecore.xmi,2.8.1.v20130125-0546,"org.eclipse.emf.ecore.xmi",1496306491102
started,bundle,org.eclipse.emf.edit,2.8.0.v20130125-0826,"org.eclipse.emf.edit",1496306491102
started,bundle,org.eclipse.emf.edit.ui,2.8.0.v20130125-0826,"org.eclipse.emf.edit.ui",1496306491102
started,bundle,org.eclipse.epp.mpc.ui,1.1.1.I20110907-0947,"org.eclipse.epp.mpc.ui",1496306491102
started,bundle,org.eclipse.equinox.app,1.3.100.v20120522-1841,"org.eclipse.equinox.app",1496306491102
started,bundle,org.eclipse.equinox.common,3.6.100.v20120522-1841,"org.eclipse.equinox.common",1496306491102
started,bundle,org.eclipse.equinox.console,1.0.0.v20120522-1841,"org.eclipse.equinox.console",1496306491102
started,bundle,org.eclipse.equinox.ds,1.4.1.v20120926-201320,"org.eclipse.equinox.ds",1496306491102
started,bundle,org.eclipse.equinox.event,1.2.200.v20120522-2049,"org.eclipse.equinox.event",1496306491102
started,bundle,org.eclipse.equinox.http.jetty,3.0.1.v20121109-203239,"org.eclipse.equinox.http.jetty",1496306491102
started,bundle,org.eclipse.equinox.http.servlet,1.1.300.v20120912-130548,"org.eclipse.equinox.http.servlet",1496306491102
started,bundle,org.eclipse.equinox.p2.core,2.2.0.v20120430-0525,"org.eclipse.equinox.p2.core",1496306491102
