what,kind,bundleId,bundleVersion,description,time
activated,workbench,org.eclipse.ui.workbench,3.104.0.v20130204-164612,"",1505270389101
opened,editor,org.eclipse.jdt.ui,3.8.2.v20130107-165834,"org.eclipse.jdt.ui.CompilationUnitEditor",1505270389185
activated,editor,org.eclipse.jdt.ui,3.8.2.v20130107-165834,"org.eclipse.jdt.ui.CompilationUnitEditor",1505270389317
executed,command,org.eclipse.ui.ide,3.8.2.v20121106-165923,"org.eclipse.ui.navigate.openResource",1505270389333
activated,view,org.eclipse.ui.navigator.resources,3.4.400.v20120705-114010,"org.eclipse.ui.navigator.ProjectExplorer",1505270391356
opened,editor,org.eclipse.jdt.ui,3.8.2.v20130107-165834,"org.eclipse.jdt.ui.CompilationUnitEditor",1505270391605
activated,editor,org.eclipse.jdt.ui,3.8.2.v20130107-165834,"org.eclipse.jdt.ui.CompilationUnitEditor",1505270391725
started,bundle,org.eclipse.jdt.junit,3.7.100.v20120523-1543,"org.eclipse.jdt.junit",1505270391912
deactivated,workbench,org.eclipse.ui.workbench,3.104.0.v20130204-164612,"",1505270400374
executed,command,org.eclipse.ui,3.104.0.v20121024-145224,"org.eclipse.ui.edit.findReplace",1505270400404
activated,workbench,org.eclipse.ui.workbench,3.104.0.v20130204-164612,"",1505270403794
deactivated,workbench,org.eclipse.ui.workbench,3.104.0.v20130204-164612,"",1505270414132
activated,workbench,org.eclipse.ui.workbench,3.104.0.v20130204-164612,"",1505270422693
deactivated,workbench,org.eclipse.ui.workbench,3.104.0.v20130204-164612,"",1505270433730
activated,workbench,org.eclipse.ui.workbench,3.104.0.v20130204-164612,"",1505270490955
started,bundle,org.eclipse.jdt.junit.core,3.7.100.v20120523-1257,"org.eclipse.jdt.junit.core",1505270995124
activated,view,org.eclipse.ui.navigator.resources,3.4.400.v20120705-114010,"org.eclipse.ui.navigator.ProjectExplorer",1505270997244
activated,editor,org.eclipse.jdt.ui,3.8.2.v20130107-165834,"org.eclipse.jdt.ui.CompilationUnitEditor",1505270997460
opened,editor,org.eclipse.jdt.ui,3.8.2.v20130107-165834,"org.eclipse.jdt.ui.CompilationUnitEditor",1505271011534
activated,editor,org.eclipse.jdt.ui,3.8.2.v20130107-165834,"org.eclipse.jdt.ui.CompilationUnitEditor",1505271011700
executed,command,org.eclipse.ui,3.104.0.v20121024-145224,"org.eclipse.ui.edit.copy",1505271034379
deactivated,workbench,org.eclipse.ui.workbench,3.104.0.v20130204-164612,"",1505271034846
executed,command,org.eclipse.ui,3.104.0.v20121024-145224,"org.eclipse.ui.edit.paste",1505271036402
activated,view,org.eclipse.search,3.8.0.v20120523-1540,"org.eclipse.search.ui.views.SearchView",1505271037690
activated,workbench,org.eclipse.ui.workbench,3.104.0.v20130204-164612,"",1505271037883
started,bundle,org.eclipse.jst.jsp.ui,1.1.702.v201301101836,"org.eclipse.jst.jsp.ui",1505271037889
executed,command,org.eclipse.search,3.8.0.v20120523-1540,"org.eclipse.search.ui.openSearchDialog",1505271037900
deactivated,workbench,org.eclipse.ui.workbench,3.104.0.v20130204-164612,"",1505271042087
executed,command,org.eclipse.ui,3.104.0.v20121024-145224,"org.eclipse.ui.edit.paste",1505271046350
activated,view,org.eclipse.search,3.8.0.v20120523-1540,"org.eclipse.search.ui.views.SearchView",1505271047090
activated,workbench,org.eclipse.ui.workbench,3.104.0.v20130204-164612,"",1505271047147
executed,command,org.eclipse.search,3.8.0.v20120523-1540,"org.eclipse.search.ui.openSearchDialog",1505271047174
deactivated,workbench,org.eclipse.ui.workbench,3.104.0.v20130204-164612,"",1505271047493
error,log,,,"Problems encountered during text search.",1505271048534
activated,workbench,org.eclipse.ui.workbench,3.104.0.v20130204-164612,"",1505271052197
deactivated,workbench,org.eclipse.ui.workbench,3.104.0.v20130204-164612,"",1505271069957
activated,workbench,org.eclipse.ui.workbench,3.104.0.v20130204-164612,"",1505271070057
activated,editor,org.eclipse.jdt.ui,3.8.2.v20130107-165834,"org.eclipse.jdt.ui.CompilationUnitEditor",1505271070784
executed,command,org.eclipse.ui,3.104.0.v20121024-145224,"org.eclipse.ui.edit.copy",1505271076542
executed,command,org.eclipse.ui,3.104.0.v20121024-145224,"org.eclipse.ui.edit.paste",1505271085942
started,bundle,org.eclipse.pde.launching,3.6.100.v20120605-203027,"org.eclipse.pde.launching",1505271095052
started,bundle,org.eclipse.ui.views.log,1.0.300.v20120530-1435,"org.eclipse.ui.views.log",1505271095054
started,bundle,org.eclipse.pde.ui,3.7.2.v20130121-093123,"org.eclipse.pde.ui",1505271095055
executed,command,org.eclipse.ui.workbench.texteditor,3.8.0.v20120523-1310,"org.eclipse.ui.edit.text.delete.line",1505271104794
activated,view,org.eclipse.ui.ide,3.8.2.v20121106-165923,"org.eclipse.ui.views.ProblemView",1505271105045
opened,view,com.adobe.flexbuilder.dcrad,4.7.0.349722,"com.adobe.flexbuilder.dcrad.views.DataServicesView",1505271105117
started,bundle,com.adobe.flexbuilder.monitors.network,4.7.0.349722,"com.adobe.flexbuilder.monitors.network",1505271105136
opened,view,com.adobe.flexbuilder.monitors.network,4.7.0.349722,"com.adobe.flexbuilder.monitors.network.view.NetworkMonitorView",1505271105283
opened,view,com.adobe.flexbuilder.as.editor,4.7.0.349722,"com.adobe.flexbuilder.as.editor.asdocviewer",1505271105383
executed,command,org.eclipse.ui,3.104.0.v20121024-145224,"org.eclipse.ui.file.save",1505271105436
activated,editor,org.eclipse.jdt.ui,3.8.2.v20130107-165834,"org.eclipse.jdt.ui.CompilationUnitEditor",1505271109818
deactivated,workbench,org.eclipse.ui.workbench,3.104.0.v20130204-164612,"",1505271115235
activated,workbench,org.eclipse.ui.workbench,3.104.0.v20130204-164612,"",1505271117715
executed,command,org.eclipse.jdt.ui,3.8.2.v20130107-165834,"org.eclipse.jdt.ui.edit.text.java.create.getter.setter",1505271117971
executed,command,org.eclipse.ui,3.104.0.v20121024-145224,"org.eclipse.ui.file.save",1505271118772
activated,view,org.eclipse.ui.navigator.resources,3.4.400.v20120705-114010,"org.eclipse.ui.navigator.ProjectExplorer",1505271120590
activated,editor,org.eclipse.jdt.ui,3.8.2.v20130107-165834,"org.eclipse.jdt.ui.CompilationUnitEditor",1505271120865
executed,command,org.eclipse.ui,3.104.0.v20121024-145224,"org.eclipse.ui.edit.copy",1505271133637
executed,command,org.eclipse.ui,3.104.0.v20121024-145224,"org.eclipse.ui.edit.paste",1505271151777
executed,command,org.eclipse.ui,3.104.0.v20121024-145224,"org.eclipse.ui.edit.copy",1505271180710
opened,editor,org.eclipse.jdt.ui,3.8.2.v20130107-165834,"org.eclipse.jdt.ui.CompilationUnitEditor",1505271192039
activated,editor,org.eclipse.jdt.ui,3.8.2.v20130107-165834,"org.eclipse.jdt.ui.CompilationUnitEditor",1505271192205
activated,editor,org.eclipse.jdt.ui,3.8.2.v20130107-165834,"org.eclipse.jdt.ui.CompilationUnitEditor",1505271194381
closed,editor,org.eclipse.jdt.ui,3.8.2.v20130107-165834,"org.eclipse.jdt.ui.CompilationUnitEditor",1505271194381
executed,command,org.eclipse.ui,3.104.0.v20121024-145224,"org.eclipse.ui.edit.copy",1505271195179
executed,command,org.eclipse.ui,3.104.0.v20121024-145224,"org.eclipse.ui.edit.paste",1505271199888
started,bundle,org.eclipse.mylyn.java.ui,3.6.0.v20110608-1400,"org.eclipse.mylyn.java.ui",1505271212389
started,bundle,org.eclipse.mylyn.ide.ui,3.6.0.v20110608-1400,"org.eclipse.mylyn.ide.ui",1505271212414
started,bundle,org.eclipse.pde.api.tools,1.0.400.v20120523-2012,"org.eclipse.pde.api.tools",1505271212452
started,bundle,org.eclipse.pde.api.tools.ui,1.0.400.v20120523-2012,"org.eclipse.pde.api.tools.ui",1505271212454
started,bundle,org.eclipse.jst.ws.jaxws.ui,1.0.201.v201301072322,"org.eclipse.jst.ws.jaxws.ui",1505271212457
started,bundle,org.eclipse.mylyn.resources.ui,3.6.0.v20110608-1400,"org.eclipse.mylyn.resources.ui",1505271214159
executed,command,org.eclipse.jdt.ui,3.8.2.v20130107-165834,"org.eclipse.jdt.ui.edit.text.java.toggle.comment",1505271228971
activated,view,org.eclipse.ui.navigator.resources,3.4.400.v20120705-114010,"org.eclipse.ui.navigator.ProjectExplorer",1505271233355
activated,editor,org.eclipse.jdt.ui,3.8.2.v20130107-165834,"org.eclipse.jdt.ui.CompilationUnitEditor",1505271233571
executed,command,org.eclipse.ui,3.104.0.v20121024-145224,"org.eclipse.ui.edit.delete",1505271245167
executed,command,org.eclipse.ui,3.104.0.v20121024-145224,"org.eclipse.ui.edit.delete",1505271245373
executed,command,org.eclipse.ui.workbench.texteditor,3.8.0.v20120523-1310,"org.eclipse.ui.edit.text.delete.line",1505271247124
executed,command,org.eclipse.ui.workbench.texteditor,3.8.0.v20120523-1310,"org.eclipse.ui.edit.text.delete.line",1505271247323
executed,command,org.eclipse.ui.workbench.texteditor,3.8.0.v20120523-1310,"org.eclipse.ui.edit.text.delete.line",1505271247453
executed,command,org.eclipse.ui,3.104.0.v20121024-145224,"org.eclipse.ui.edit.cut",1505271253060
executed,command,org.eclipse.ui.workbench.texteditor,3.8.0.v20120523-1310,"org.eclipse.ui.edit.text.delete.line",1505271253544
executed,command,org.eclipse.ui.workbench.texteditor,3.8.0.v20120523-1310,"org.eclipse.ui.edit.text.delete.line",1505271253839
executed,command,org.eclipse.ui,3.104.0.v20121024-145224,"org.eclipse.ui.file.save",1505271254305
activated,view,org.eclipse.ui.navigator.resources,3.4.400.v20120705-114010,"org.eclipse.ui.navigator.ProjectExplorer",1505271260059
deactivated,workbench,org.eclipse.ui.workbench,3.104.0.v20130204-164612,"",1505271267539
activated,workbench,org.eclipse.ui.workbench,3.104.0.v20130204-164612,"",1505271268433
executed,command,org.tigris.subversion.subclipse.ui,1.8.21,"org.tigris.subversion.subclipse.ui.revert",1505271268459
opened,editor,org.eclipse.jdt.ui,3.8.2.v20130107-165834,"org.eclipse.jdt.ui.CompilationUnitEditor",1505271273644
activated,editor,org.eclipse.jdt.ui,3.8.2.v20130107-165834,"org.eclipse.jdt.ui.CompilationUnitEditor",1505271273781
executed,command,org.eclipse.ui,3.104.0.v20121024-145224,"org.eclipse.ui.edit.paste",1505271281147
executed,command,org.eclipse.ui,3.104.0.v20121024-145224,"org.eclipse.ui.edit.undo",1505271283066
executed,command,org.eclipse.ui,3.104.0.v20121024-145224,"org.eclipse.ui.edit.paste",1505271283948
executed,command,org.eclipse.ui,3.104.0.v20121024-145224,"org.eclipse.ui.edit.copy",1505271286814
executed,command,org.eclipse.ui,3.104.0.v20121024-145224,"org.eclipse.ui.edit.paste",1505271287673
executed,command,org.eclipse.ui,3.104.0.v20121024-145224,"org.eclipse.ui.file.save",1505271307269
deactivated,workbench,org.eclipse.ui.workbench,3.104.0.v20130204-164612,"",1505271339079
activated,workbench,org.eclipse.ui.workbench,3.104.0.v20130204-164612,"",1505271342189
executed,command,org.eclipse.jdt.ui,3.8.2.v20130107-165834,"org.eclipse.jdt.ui.edit.text.java.create.getter.setter",1505271342252
executed,command,org.eclipse.ui,3.104.0.v20121024-145224,"org.eclipse.ui.file.save",1505271343514
activated,view,org.eclipse.ui.navigator.resources,3.4.400.v20120705-114010,"org.eclipse.ui.navigator.ProjectExplorer",1505271349881
activated,editor,org.eclipse.jdt.ui,3.8.2.v20130107-165834,"org.eclipse.jdt.ui.CompilationUnitEditor",1505271350150
activated,view,org.eclipse.ui.navigator.resources,3.4.400.v20120705-114010,"org.eclipse.ui.navigator.ProjectExplorer",1505271359356
opened,editor,org.eclipse.jdt.ui,3.8.2.v20130107-165834,"org.eclipse.jdt.ui.CompilationUnitEditor",1505271372825
activated,editor,org.eclipse.jdt.ui,3.8.2.v20130107-165834,"org.eclipse.jdt.ui.CompilationUnitEditor",1505271373007
activated,view,org.eclipse.ui.navigator.resources,3.4.400.v20120705-114010,"org.eclipse.ui.navigator.ProjectExplorer",1505271411264
activated,editor,org.eclipse.jdt.ui,3.8.2.v20130107-165834,"org.eclipse.jdt.ui.CompilationUnitEditor",1505271411530
executed,command,org.eclipse.jdt.ui,3.8.2.v20130107-165834,"org.eclipse.jdt.ui.edit.text.java.toggle.comment",1505271416312
activated,view,org.eclipse.ui.navigator.resources,3.4.400.v20120705-114010,"org.eclipse.ui.navigator.ProjectExplorer",1505271434636
activated,editor,org.eclipse.jdt.ui,3.8.2.v20130107-165834,"org.eclipse.jdt.ui.CompilationUnitEditor",1505271434883
deactivated,workbench,org.eclipse.ui.workbench,3.104.0.v20130204-164612,"",1505271444974
activated,workbench,org.eclipse.ui.workbench,3.104.0.v20130204-164612,"",1505271445981
activated,editor,org.eclipse.jdt.ui,3.8.2.v20130107-165834,"org.eclipse.jdt.ui.CompilationUnitEditor",1505271446004
executed,command,org.eclipse.ui,3.104.0.v20121024-145224,"org.eclipse.ui.edit.delete",1505271451601
executed,command,org.eclipse.ui,3.104.0.v20121024-145224,"org.eclipse.ui.edit.undo",1505271453433
executed,command,org.eclipse.ui,3.104.0.v20121024-145224,"org.eclipse.ui.edit.undo",1505271453623
executed,command,org.eclipse.ui,3.104.0.v20121024-145224,"org.eclipse.ui.edit.undo",1505271453804
executed,command,org.eclipse.ui,3.104.0.v20121024-145224,"org.eclipse.ui.edit.undo",1505271453956
executed,command,org.eclipse.ui,3.104.0.v20121024-145224,"org.eclipse.ui.edit.undo",1505271454260
executed,command,org.eclipse.ui,3.104.0.v20121024-145224,"org.eclipse.ui.edit.undo",1505271454744
executed,command,org.eclipse.ui,3.104.0.v20121024-145224,"org.eclipse.ui.edit.undo",1505271454778
executed,command,org.eclipse.ui,3.104.0.v20121024-145224,"org.eclipse.ui.edit.undo",1505271454825
executed,command,org.eclipse.ui,3.104.0.v20121024-145224,"org.eclipse.ui.edit.undo",1505271454857
executed,command,org.eclipse.ui,3.104.0.v20121024-145224,"org.eclipse.ui.edit.undo",1505271454893
executed,command,org.eclipse.ui,3.104.0.v20121024-145224,"org.eclipse.ui.edit.undo",1505271454908
executed,command,org.eclipse.ui,3.104.0.v20121024-145224,"org.eclipse.ui.edit.undo",1505271454958
executed,command,org.eclipse.ui,3.104.0.v20121024-145224,"org.eclipse.ui.edit.undo",1505271454993
activated,view,org.eclipse.ui.navigator.resources,3.4.400.v20120705-114010,"org.eclipse.ui.navigator.ProjectExplorer",1505271456350
activated,editor,org.eclipse.jdt.ui,3.8.2.v20130107-165834,"org.eclipse.jdt.ui.CompilationUnitEditor",1505271456603
executed,command,org.eclipse.ui,3.104.0.v20121024-145224,"org.eclipse.ui.edit.copy",1505271468981
executed,command,org.eclipse.ui,3.104.0.v20121024-145224,"org.eclipse.ui.edit.paste",1505271496458
executed,command,org.eclipse.ui,3.104.0.v20121024-145224,"org.eclipse.ui.edit.copy",1505271498222
executed,command,org.eclipse.ui,3.104.0.v20121024-145224,"org.eclipse.ui.edit.paste",1505271499513
executed,command,org.eclipse.ui,3.104.0.v20121024-145224,"org.eclipse.ui.edit.copy",1505271519092
executed,command,org.eclipse.ui,3.104.0.v20121024-145224,"org.eclipse.ui.edit.paste",1505271521130
executed,command,org.eclipse.ui.workbench.texteditor,3.8.0.v20120523-1310,"org.eclipse.ui.edit.text.delete.line",1505271525172
executed,command,org.eclipse.ui,3.104.0.v20121024-145224,"org.eclipse.ui.file.save",1505271525553
deactivated,workbench,org.eclipse.ui.workbench,3.104.0.v20130204-164612,"",1505271534850
activated,workbench,org.eclipse.ui.workbench,3.104.0.v20130204-164612,"",1505271537565
activated,editor,com.adobe.flexbuilder.mxml.editor,4.7.0.349722,"com.adobe.flexbuilder.editors.mxml.MXMLEditor",1505271537739
executed,command,org.eclipse.ui.ide,3.8.2.v20121106-165923,"org.eclipse.ui.navigate.openResource",1505271537744
executed,command,org.eclipse.ui,3.104.0.v20121024-145224,"org.eclipse.ui.edit.delete",1505271542264
activated,view,org.eclipse.ui.navigator.resources,3.4.400.v20120705-114010,"org.eclipse.ui.navigator.ProjectExplorer",1505271586825
activated,editor,org.eclipse.jdt.ui,3.8.2.v20130107-165834,"org.eclipse.jdt.ui.CompilationUnitEditor",1505271587241
activated,view,org.eclipse.ui.navigator.resources,3.4.400.v20120705-114010,"org.eclipse.ui.navigator.ProjectExplorer",1505271593445
activated,editor,org.eclipse.jdt.ui,3.8.2.v20130107-165834,"org.eclipse.jdt.ui.CompilationUnitEditor",1505271593704
activated,view,org.eclipse.ui.navigator.resources,3.4.400.v20120705-114010,"org.eclipse.ui.navigator.ProjectExplorer",1505271602089
activated,editor,org.eclipse.jdt.ui,3.8.2.v20130107-165834,"org.eclipse.jdt.ui.CompilationUnitEditor",1505271602311
activated,view,org.eclipse.ui.navigator.resources,3.4.400.v20120705-114010,"org.eclipse.ui.navigator.ProjectExplorer",1505271615784
activated,editor,org.eclipse.jdt.ui,3.8.2.v20130107-165834,"org.eclipse.jdt.ui.CompilationUnitEditor",1505271616461
executed,command,org.eclipse.ui,3.104.0.v20121024-145224,"org.eclipse.ui.edit.copy",1505271618830
activated,view,org.eclipse.ui.navigator.resources,3.4.400.v20120705-114010,"org.eclipse.ui.navigator.ProjectExplorer",1505271621333
activated,editor,org.eclipse.jdt.ui,3.8.2.v20130107-165834,"org.eclipse.jdt.ui.CompilationUnitEditor",1505271621588
executed,command,org.eclipse.ui,3.104.0.v20121024-145224,"org.eclipse.ui.edit.paste",1505271629566
executed,command,org.eclipse.ui,3.104.0.v20121024-145224,"org.eclipse.ui.edit.copy",1505271643932
executed,command,org.eclipse.ui,3.104.0.v20121024-145224,"org.eclipse.ui.edit.paste",1505271647881
executed,command,org.eclipse.ui,3.104.0.v20121024-145224,"org.eclipse.ui.edit.delete",1505271651735
executed,command,org.eclipse.jdt.ui,3.8.2.v20130107-165834,"org.eclipse.jdt.ui.edit.text.java.organize.imports",1505271682347
activated,view,org.eclipse.ui.navigator.resources,3.4.400.v20120705-114010,"org.eclipse.ui.navigator.ProjectExplorer",1505271684774
activated,editor,org.eclipse.jdt.ui,3.8.2.v20130107-165834,"org.eclipse.jdt.ui.CompilationUnitEditor",1505271685006
executed,command,org.eclipse.ui,3.104.0.v20121024-145224,"org.eclipse.ui.edit.copy",1505271689697
activated,view,org.eclipse.ui.navigator.resources,3.4.400.v20120705-114010,"org.eclipse.ui.navigator.ProjectExplorer",1505271690361
activated,editor,org.eclipse.jdt.ui,3.8.2.v20130107-165834,"org.eclipse.jdt.ui.CompilationUnitEditor",1505271690609
executed,command,org.eclipse.ui,3.104.0.v20121024-145224,"org.eclipse.ui.edit.paste",1505271696558
executed,command,org.eclipse.ui,3.104.0.v20121024-145224,"org.eclipse.ui.file.save",1505271696746
activated,view,org.eclipse.ui.navigator.resources,3.4.400.v20120705-114010,"org.eclipse.ui.navigator.ProjectExplorer",1505271698300
activated,editor,org.eclipse.jdt.ui,3.8.2.v20130107-165834,"org.eclipse.jdt.ui.CompilationUnitEditor",1505271698858
activated,view,org.eclipse.ui.navigator.resources,3.4.400.v20120705-114010,"org.eclipse.ui.navigator.ProjectExplorer",1505271717174
activated,editor,org.eclipse.jdt.ui,3.8.2.v20130107-165834,"org.eclipse.jdt.ui.CompilationUnitEditor",1505271720253
deactivated,workbench,org.eclipse.ui.workbench,3.104.0.v20130204-164612,"",1505271721063
activated,workbench,org.eclipse.ui.workbench,3.104.0.v20130204-164612,"",1505271737365
executed,command,org.eclipse.ui.ide,3.8.2.v20121106-165923,"org.eclipse.ui.navigate.openResource",1505271737439
deactivated,workbench,org.eclipse.ui.workbench,3.104.0.v20130204-164612,"",1505271739998
activated,workbench,org.eclipse.ui.workbench,3.104.0.v20130204-164612,"",1505271843255
activated,view,org.eclipse.ui.navigator.resources,3.4.400.v20120705-114010,"org.eclipse.ui.navigator.ProjectExplorer",1505271846659
activated,editor,org.eclipse.jdt.ui,3.8.2.v20130107-165834,"org.eclipse.jdt.ui.CompilationUnitEditor",1505271846898
executed,command,org.eclipse.ui,3.104.0.v20121024-145224,"org.eclipse.ui.edit.copy",1505271873949
activated,view,org.eclipse.ui.navigator.resources,3.4.400.v20120705-114010,"org.eclipse.ui.navigator.ProjectExplorer",1505271882847
activated,editor,org.eclipse.jdt.ui,3.8.2.v20130107-165834,"org.eclipse.jdt.ui.CompilationUnitEditor",1505271883094
activated,view,org.eclipse.ui.navigator.resources,3.4.400.v20120705-114010,"org.eclipse.ui.navigator.ProjectExplorer",1505271886320
activated,editor,org.eclipse.jdt.ui,3.8.2.v20130107-165834,"org.eclipse.jdt.ui.CompilationUnitEditor",1505271886604
activated,view,org.eclipse.ui.navigator.resources,3.4.400.v20120705-114010,"org.eclipse.ui.navigator.ProjectExplorer",1505271900499
activated,editor,org.eclipse.jdt.ui,3.8.2.v20130107-165834,"org.eclipse.jdt.ui.CompilationUnitEditor",1505271900792
activated,view,org.eclipse.ui.navigator.resources,3.4.400.v20120705-114010,"org.eclipse.ui.navigator.ProjectExplorer",1505271901497
activated,editor,org.eclipse.jdt.ui,3.8.2.v20130107-165834,"org.eclipse.jdt.ui.CompilationUnitEditor",1505271901777
activated,view,org.eclipse.ui.navigator.resources,3.4.400.v20120705-114010,"org.eclipse.ui.navigator.ProjectExplorer",1505271927612
activated,editor,org.eclipse.jdt.ui,3.8.2.v20130107-165834,"org.eclipse.jdt.ui.CompilationUnitEditor",1505271927878
activated,view,org.eclipse.ui.navigator.resources,3.4.400.v20120705-114010,"org.eclipse.ui.navigator.ProjectExplorer",1505271930864
activated,editor,org.eclipse.jdt.ui,3.8.2.v20130107-165834,"org.eclipse.jdt.ui.CompilationUnitEditor",1505271931103
executed,command,org.eclipse.ui,3.104.0.v20121024-145224,"org.eclipse.ui.edit.copy",1505271940495
activated,view,org.eclipse.ui.navigator.resources,3.4.400.v20120705-114010,"org.eclipse.ui.navigator.ProjectExplorer",1505271941730
activated,editor,org.eclipse.jdt.ui,3.8.2.v20130107-165834,"org.eclipse.jdt.ui.CompilationUnitEditor",1505271941974
activated,view,org.eclipse.ui.navigator.resources,3.4.400.v20120705-114010,"org.eclipse.ui.navigator.ProjectExplorer",1505271951442
activated,editor,org.eclipse.jdt.ui,3.8.2.v20130107-165834,"org.eclipse.jdt.ui.CompilationUnitEditor",1505271951701
executed,command,org.eclipse.ui,3.104.0.v20121024-145224,"org.eclipse.ui.edit.paste",1505271960622
executed,command,org.eclipse.ui,3.104.0.v20121024-145224,"org.eclipse.ui.edit.copy",1505271970361
executed,command,org.eclipse.ui,3.104.0.v20121024-145224,"org.eclipse.ui.edit.paste",1505271971647
executed,command,org.eclipse.ui,3.104.0.v20121024-145224,"org.eclipse.ui.edit.paste",1505271975041
executed,command,org.eclipse.ui,3.104.0.v20121024-145224,"org.eclipse.ui.edit.paste",1505271976851
executed,command,org.eclipse.ui,3.104.0.v20121024-145224,"org.eclipse.ui.edit.paste",1505271979949
executed,command,org.eclipse.ui,3.104.0.v20121024-145224,"org.eclipse.ui.edit.paste",1505271983118
executed,command,org.eclipse.ui,3.104.0.v20121024-145224,"org.eclipse.ui.edit.cut",1505271987901
executed,command,org.eclipse.ui,3.104.0.v20121024-145224,"org.eclipse.ui.edit.paste",1505271989356
activated,view,org.eclipse.ui.navigator.resources,3.4.400.v20120705-114010,"org.eclipse.ui.navigator.ProjectExplorer",1505271992381
activated,editor,org.eclipse.jdt.ui,3.8.2.v20130107-165834,"org.eclipse.jdt.ui.CompilationUnitEditor",1505271992671
executed,command,org.eclipse.ui,3.104.0.v20121024-145224,"org.eclipse.ui.edit.copy",1505271995557
activated,view,org.eclipse.ui.navigator.resources,3.4.400.v20120705-114010,"org.eclipse.ui.navigator.ProjectExplorer",1505271997551
activated,editor,org.eclipse.jdt.ui,3.8.2.v20130107-165834,"org.eclipse.jdt.ui.CompilationUnitEditor",1505271997817
executed,command,org.eclipse.ui,3.104.0.v20121024-145224,"org.eclipse.ui.edit.paste",1505272001208
activated,editor,org.eclipse.jdt.ui,3.8.2.v20130107-165834,"org.eclipse.jdt.ui.CompilationUnitEditor",1505272017846
activated,editor,com.adobe.flexbuilder.mxml.editor,4.7.0.349722,"com.adobe.flexbuilder.editors.mxml.MXMLEditor",1505272025482
activated,view,org.eclipse.ui.navigator.resources,3.4.400.v20120705-114010,"org.eclipse.ui.navigator.ProjectExplorer",1505272034076
activated,editor,org.eclipse.jdt.ui,3.8.2.v20130107-165834,"org.eclipse.jdt.ui.CompilationUnitEditor",1505272034323
executed,command,org.eclipse.ui.workbench.texteditor,3.8.0.v20120523-1310,"org.eclipse.ui.edit.text.delete.line",1505272087652
executed,command,org.eclipse.ui.workbench.texteditor,3.8.0.v20120523-1310,"org.eclipse.ui.edit.text.delete.line",1505272088305
executed,command,org.eclipse.ui.workbench.texteditor,3.8.0.v20120523-1310,"org.eclipse.ui.edit.text.delete.line",1505272088538
executed,command,org.eclipse.ui.workbench.texteditor,3.8.0.v20120523-1310,"org.eclipse.ui.edit.text.delete.line",1505272115598
executed,command,org.eclipse.ui,3.104.0.v20121024-145224,"org.eclipse.ui.file.save",1505272146048
activated,view,org.eclipse.ui.navigator.resources,3.4.400.v20120705-114010,"org.eclipse.ui.navigator.ProjectExplorer",1505272152768
activated,editor,org.eclipse.jdt.ui,3.8.2.v20130107-165834,"org.eclipse.jdt.ui.CompilationUnitEditor",1505272153027
deactivated,workbench,org.eclipse.ui.workbench,3.104.0.v20130204-164612,"",1505272156263
activated,workbench,org.eclipse.ui.workbench,3.104.0.v20130204-164612,"",1505272255810
activated,view,org.eclipse.ui.navigator.resources,3.4.400.v20120705-114010,"org.eclipse.ui.navigator.ProjectExplorer",1505272258521
activated,editor,org.eclipse.jdt.ui,3.8.2.v20130107-165834,"org.eclipse.jdt.ui.CompilationUnitEditor",1505272259460
deactivated,workbench,org.eclipse.ui.workbench,3.104.0.v20130204-164612,"",1505272260201
activated,workbench,org.eclipse.ui.workbench,3.104.0.v20130204-164612,"",1505272265442
opened,editor,org.eclipse.ui.editors,3.8.0.v20120523-1540,"org.eclipse.ui.DefaultTextEditor",1505272265520
activated,editor,org.eclipse.ui.editors,3.8.0.v20120523-1540,"org.eclipse.ui.DefaultTextEditor",1505272265558
executed,command,org.eclipse.ui.ide,3.8.2.v20121106-165923,"org.eclipse.ui.navigate.openResource",1505272265589
executed,command,org.eclipse.ui,3.104.0.v20121024-145224,"org.eclipse.ui.file.save",1505272270388
deactivated,workbench,org.eclipse.ui.workbench,3.104.0.v20130204-164612,"",1505272273449
activated,workbench,org.eclipse.ui.workbench,3.104.0.v20130204-164612,"",1505272335413
activated,view,org.eclipse.ui.navigator.resources,3.4.400.v20120705-114010,"org.eclipse.ui.navigator.ProjectExplorer",1505272335451
deactivated,workbench,org.eclipse.ui.workbench,3.104.0.v20130204-164612,"",1505272337335
activated,workbench,org.eclipse.ui.workbench,3.104.0.v20130204-164612,"",1505272391077
deactivated,workbench,org.eclipse.ui.workbench,3.104.0.v20130204-164612,"",1505272393230
activated,workbench,org.eclipse.ui.workbench,3.104.0.v20130204-164612,"",1505272394698
executed,command,org.eclipse.ui.ide,3.8.2.v20121106-165923,"org.eclipse.ui.project.cleanAction",1505272394715
started,bundle,org.eclipse.wst.ws.service.policy.ui,1.0.400.v201201111717,"org.eclipse.wst.ws.service.policy.ui",1505272396347
started,bundle,org.eclipse.wst.ws.service.policy,1.0.303.v201009221810,"org.eclipse.wst.ws.service.policy",1505272396363
started,bundle,org.eclipse.wst.command.env,1.0.409.v201004211805,"org.eclipse.wst.command.env",1505272396394
started,bundle,org.eclipse.wst.ws,1.1.300.v201204181727,"org.eclipse.wst.ws",1505272396394
started,bundle,org.eclipse.jst.jsf.facelet.ui,1.1.0.v201301161500,"org.eclipse.jst.jsf.facelet.ui",1505272398096
started,bundle,org.granite.builder,2.2.0.SP2,"org.granite.builder",1505272398096
started,bundle,org.eclipse.jst.jsf.facelet.core,1.1.0.v201301161500,"org.eclipse.jst.jsf.facelet.core",1505272398096
started,bundle,org.eclipse.jst.jsf.common.runtime,1.2.0.v201301161500,"org.eclipse.jst.jsf.common.runtime",1505272398225
opened,view,org.eclipse.ui.ide,3.8.2.v20121106-165923,"org.eclipse.ui.views.AllMarkersView",1505272403202
activated,view,org.eclipse.ui.ide,3.8.2.v20121106-165923,"org.eclipse.ui.views.AllMarkersView",1505272403249
opened,view,org.eclipse.ui.views,3.6.100.v20120705-114010,"org.eclipse.ui.views.PropertySheet",1505272404490
activated,view,org.eclipse.ui.views,3.6.100.v20120705-114010,"org.eclipse.ui.views.PropertySheet",1505272404545
