what,kind,bundleId,bundleVersion,description,time
started,bundle,org.eclipse.jst.server.core,1.2.302.v20120503_1042,"org.eclipse.jst.server.core",1494901291532
started,bundle,org.eclipse.jst.ws.jaxws.dom.integration,1.0.200.v201109042201,"org.eclipse.jst.ws.jaxws.dom.integration",1494901291688
started,bundle,org.eclipse.jst.ws.jaxws.dom.ui,1.0.0.v201004171919,"org.eclipse.jst.ws.jaxws.dom.ui",1494901291688
started,bundle,org.eclipse.wst.css.core,1.1.602.v201210091733,"org.eclipse.wst.css.core",1494901293098
started,bundle,org.eclipse.xsd,2.8.1.v20130125-0826,"org.eclipse.xsd",1494901293114
started,bundle,org.eclipse.wst.html.core,1.1.602.v201301032305,"org.eclipse.wst.html.core",1494901293161
started,bundle,org.eclipse.wst.dtd.core,1.1.600.v201205171933,"org.eclipse.wst.dtd.core",1494901294367
started,bundle,org.eclipse.jst.jsp.core,1.2.502.v201301101836,"org.eclipse.jst.jsp.core",1494901294398
started,bundle,org.eclipse.jst.jsf.common,1.3.0.v201301161500,"org.eclipse.jst.jsf.common",1494901295295
started,bundle,org.eclipse.jst.jsf.core,1.5.0.v201301161500,"org.eclipse.jst.jsf.core",1494901295295
started,bundle,org.eclipse.wst.wsdl.validation,1.1.600.v201203081939,"org.eclipse.wst.wsdl.validation",1494901295327
started,bundle,org.eclipse.wst.xsd.core,1.1.700.v201204102147,"org.eclipse.wst.xsd.core",1494901295342
started,bundle,org.eclipse.wst.xsl.core,1.1.100.v201102270516,"org.eclipse.wst.xsl.core",1494901295342
started,bundle,org.eclipse.wst.xsl.exslt.core,1.0.0.v201005240426,"org.eclipse.wst.xsl.exslt.core",1494901295405
started,bundle,org.eclipse.wst.internet.cache,1.0.600.v201203071939,"org.eclipse.wst.internet.cache",1494901295530
started,bundle,com.adobe.flexide.codemodel.bridge,4.7.0.349722,"com.adobe.flexide.codemodel.bridge",1494901295624
started,bundle,com.adobe.flexbuilder.codemodel,4.7.0.349722,"com.adobe.flexbuilder.codemodel",1494901295827
started,bundle,org.eclipse.jpt.jpa.eclipselink.core,2.2.1.v201208222210,"org.eclipse.jpt.jpa.eclipselink.core",1494901299345
started,bundle,org.eclipse.jpt.jpa.db,2.1.101.v201208222210,"org.eclipse.jpt.jpa.db",1494901299501
started,bundle,org.eclipse.datatools.connectivity,1.2.7.v201302060508,"org.eclipse.datatools.connectivity",1494901299532
started,bundle,org.eclipse.jst.jsf.facelet.ui,1.1.0.v201301161500,"org.eclipse.jst.jsf.facelet.ui",1494901301685
started,bundle,org.eclipse.jst.jsf.facelet.core,1.1.0.v201301161500,"org.eclipse.jst.jsf.facelet.core",1494901301685
started,bundle,org.eclipse.wst.sse.ui,1.3.102.v201301162301,"org.eclipse.wst.sse.ui",1494901303771
started,bundle,org.eclipse.jst.jsf.ui,1.4.0.v201301161500,"org.eclipse.jst.jsf.ui",1494901303771
started,bundle,org.eclipse.jst.jsf.common.runtime,1.2.0.v201301161500,"org.eclipse.jst.jsf.common.runtime",1494901303833
activated,perspective,org.eclipse.jst.j2ee.ui,,"org.eclipse.jst.j2ee.J2EEPerspective",1495071586902
started,bundle,org.eclipse.osgi,3.8.2.v20130124-134944,"org.eclipse.osgi",1495071586902
started,bundle,org.eclipse.equinox.simpleconfigurator,1.0.301.v20120914-163612,"org.eclipse.equinox.simpleconfigurator",1495071586902
started,bundle,com.ibm.icu,4.4.2.v20110823,"com.ibm.icu",1495071586902
started,bundle,org.apache.felix.gogo.command,0.8.0.v201108120515,"org.apache.felix.gogo.command",1495071586902
started,bundle,org.apache.felix.gogo.runtime,0.8.0.v201108120515,"org.apache.felix.gogo.runtime",1495071586902
started,bundle,org.apache.felix.gogo.shell,0.8.0.v201110170705,"org.apache.felix.gogo.shell",1495071586902
started,bundle,org.eclipse.compare,3.5.301.v20130125-135424,"org.eclipse.compare",1495071586918
started,bundle,org.eclipse.compare.core,3.5.200.v20120522-1148,"org.eclipse.compare.core",1495071586918
started,bundle,org.eclipse.core.contenttype,3.4.200.v20120523-2004,"org.eclipse.core.contenttype",1495071586918
started,bundle,org.eclipse.core.databinding.observable,1.4.1.v20120521-2329,"org.eclipse.core.databinding.observable",1495071586918
started,bundle,org.eclipse.core.expressions,3.4.401.v20120912-155018,"org.eclipse.core.expressions",1495071586918
started,bundle,org.eclipse.core.filebuffers,3.5.200.v20120523-1310,"org.eclipse.core.filebuffers",1495071586918
started,bundle,org.eclipse.core.filesystem,1.3.200.v20130115-145044,"org.eclipse.core.filesystem",1495071586918
started,bundle,org.eclipse.core.jobs,3.5.300.v20120912-155018,"org.eclipse.core.jobs",1495071586918
started,bundle,org.eclipse.core.net,1.2.200.v20120914-093638,"org.eclipse.core.net",1495071586918
started,bundle,org.eclipse.core.resources,3.8.1.v20121114-124432,"org.eclipse.core.resources",1495071586918
started,bundle,org.eclipse.core.runtime,3.8.0.v20120912-155025,"org.eclipse.core.runtime",1495071586918
started,bundle,org.eclipse.core.runtime.compatibility,3.2.200.v20120521-2346,"org.eclipse.core.runtime.compatibility",1495071586918
started,bundle,org.eclipse.debug.core,3.7.100.v20120521-2012,"org.eclipse.debug.core",1495071586918
started,bundle,org.eclipse.e4.core.commands,0.10.1.v20120523-1955,"org.eclipse.e4.core.commands",1495071586918
started,bundle,org.eclipse.e4.core.contexts,1.2.0.v20121221-192508,"org.eclipse.e4.core.contexts",1495071586918
started,bundle,org.eclipse.e4.core.di,1.2.0.v20121024-173149,"org.eclipse.e4.core.di",1495071586918
started,bundle,org.eclipse.e4.core.services,1.0.0.v20120521-2346,"org.eclipse.e4.core.services",1495071586918
started,bundle,org.eclipse.e4.ui.bindings,0.10.3.v20130123-162658,"org.eclipse.e4.ui.bindings",1495071586918
started,bundle,org.eclipse.e4.ui.css.swt,0.10.3.v20130123-162658,"org.eclipse.e4.ui.css.swt",1495071586918
started,bundle,org.eclipse.e4.ui.css.swt.theme,0.9.4.v20130123-162658,"org.eclipse.e4.ui.css.swt.theme",1495071586918
started,bundle,org.eclipse.e4.ui.di,0.10.1.v20120523-1955,"org.eclipse.e4.ui.di",1495071586918
started,bundle,org.eclipse.e4.ui.model.workbench,0.10.1.v20120523-1955,"org.eclipse.e4.ui.model.workbench",1495071586918
started,bundle,org.eclipse.e4.ui.services,0.10.3.v20130123-162658,"org.eclipse.e4.ui.services",1495071586918
started,bundle,org.eclipse.e4.ui.workbench,0.11.0.v20130125-100758,"org.eclipse.e4.ui.workbench",1495071586918
started,bundle,org.eclipse.e4.ui.workbench.addons.swt,0.10.3.v20130124-185622,"org.eclipse.e4.ui.workbench.addons.swt",1495071586918
started,bundle,org.eclipse.e4.ui.workbench.renderers.swt,0.10.3.v20130124-170312,"org.eclipse.e4.ui.workbench.renderers.swt",1495071586918
started,bundle,org.eclipse.e4.ui.workbench.swt,0.10.3.v20130124-133900,"org.eclipse.e4.ui.workbench.swt",1495071586918
started,bundle,org.eclipse.emf.common,2.8.0.v20130125-0546,"org.eclipse.emf.common",1495071586918
started,bundle,org.eclipse.emf.common.ui,2.7.0.v20130125-0826,"org.eclipse.emf.common.ui",1495071586918
started,bundle,org.eclipse.emf.ecore,2.8.3.v20130125-0546,"org.eclipse.emf.ecore",1495071586918
started,bundle,org.eclipse.emf.ecore.xmi,2.8.1.v20130125-0546,"org.eclipse.emf.ecore.xmi",1495071586918
started,bundle,org.eclipse.emf.edit,2.8.0.v20130125-0826,"org.eclipse.emf.edit",1495071586918
started,bundle,org.eclipse.emf.edit.ui,2.8.0.v20130125-0826,"org.eclipse.emf.edit.ui",1495071586918
started,bundle,org.eclipse.epp.mpc.ui,1.1.1.I20110907-0947,"org.eclipse.epp.mpc.ui",1495071586918
started,bundle,org.eclipse.equinox.app,1.3.100.v20120522-1841,"org.eclipse.equinox.app",1495071586918
started,bundle,org.eclipse.equinox.common,3.6.100.v20120522-1841,"org.eclipse.equinox.common",1495071586918
started,bundle,org.eclipse.equinox.console,1.0.0.v20120522-1841,"org.eclipse.equinox.console",1495071586918
started,bundle,org.eclipse.equinox.ds,1.4.1.v20120926-201320,"org.eclipse.equinox.ds",1495071586934
started,bundle,org.eclipse.equinox.event,1.2.200.v20120522-2049,"org.eclipse.equinox.event",1495071586934
started,bundle,org.eclipse.equinox.p2.core,2.2.0.v20120430-0525,"org.eclipse.equinox.p2.core",1495071586935
started,bundle,org.eclipse.equinox.p2.directorywatcher,1.0.300.v20110808-1657,"org.eclipse.equinox.p2.directorywatcher",1495071586936
started,bundle,org.eclipse.equinox.p2.engine,2.2.0.v20130121-021919,"org.eclipse.equinox.p2.engine",1495071586937
started,bundle,org.eclipse.equinox.p2.garbagecollector,1.0.200.v20110808-1657,"org.eclipse.equinox.p2.garbagecollector",1495071586937
started,bundle,org.eclipse.equinox.p2.metadata,2.1.0.v20120430-2001,"org.eclipse.equinox.p2.metadata",1495071586937
started,bundle,org.eclipse.equinox.p2.metadata.repository,1.2.100.v20120524-1717,"org.eclipse.equinox.p2.metadata.repository",1495071586937
started,bundle,org.eclipse.equinox.p2.operations,2.2.0.v20130119-010614,"org.eclipse.equinox.p2.operations",1495071586937
started,bundle,org.eclipse.equinox.p2.publisher,1.2.0.v20121002-080415,"org.eclipse.equinox.p2.publisher",1495071586941
started,bundle,org.eclipse.equinox.p2.reconciler.dropins,1.1.200.v20120301-2145,"org.eclipse.equinox.p2.reconciler.dropins",1495071586941
started,bundle,org.eclipse.equinox.p2.repository,2.2.0.v20120524-1945,"org.eclipse.equinox.p2.repository",1495071586941
started,bundle,org.eclipse.equinox.p2.ui.sdk.scheduler,1.1.0.v20110815-1744,"org.eclipse.equinox.p2.ui.sdk.scheduler",1495071586941
started,bundle,org.eclipse.equinox.p2.updatechecker,1.1.200.v20110808-1657,"org.eclipse.equinox.p2.updatechecker",1495071586941
started,bundle,org.eclipse.equinox.preferences,3.5.1.v20121031-182809,"org.eclipse.equinox.preferences",1495071586941
started,bundle,org.eclipse.equinox.registry,3.5.200.v20120522-1841,"org.eclipse.equinox.registry",1495071586941
started,bundle,org.eclipse.equinox.security,1.1.100.v20120522-1841,"org.eclipse.equinox.security",1495071586941
started,bundle,org.eclipse.equinox.util,1.0.400.v20120917-192807,"org.eclipse.equinox.util",1495071586941
started,bundle,org.eclipse.help,3.6.0.v20120912-134126,"org.eclipse.help",1495071586941
started,bundle,org.eclipse.jdt.apt.core,3.3.500.v20120522-1651,"org.eclipse.jdt.apt.core",1495071586941
started,bundle,org.eclipse.jdt.apt.pluggable.core,1.0.400.v20120522-1651,"org.eclipse.jdt.apt.pluggable.core",1495071586941
started,bundle,org.eclipse.jdt.core,3.8.3.v20130121-145325,"org.eclipse.jdt.core",1495071586941
started,bundle,org.eclipse.jdt.core.manipulation,1.5.0.v20120523-1543,"org.eclipse.jdt.core.manipulation",1495071586941
started,bundle,org.eclipse.jdt.launching,3.6.101.v20130111-183046,"org.eclipse.jdt.launching",1495071586941
started,bundle,org.eclipse.jdt.ui,3.8.2.v20130107-165834,"org.eclipse.jdt.ui",1495071586941
started,bundle,org.eclipse.jem,2.0.600.v201201051400,"org.eclipse.jem",1495071586941
started,bundle,org.eclipse.jem.util,2.1.100.v201103021400,"org.eclipse.jem.util",1495071586941
started,bundle,org.eclipse.jem.workbench,2.0.400.v201104251400,"org.eclipse.jem.workbench",1495071586941
started,bundle,org.eclipse.jface,3.8.102.v20130123-162658,"org.eclipse.jface",1495071586941
started,bundle,org.eclipse.jsch.core,1.1.400.v20120522-1148,"org.eclipse.jsch.core",1495071586941
started,bundle,org.eclipse.jst.common.frameworks,1.1.601.v201208160700,"org.eclipse.jst.common.frameworks",1495071586956
started,bundle,org.eclipse.jst.common.project.facet.core,1.4.201.v201108161900,"org.eclipse.jst.common.project.facet.core",1495071586956
started,bundle,org.eclipse.jst.j2ee,1.1.603.v201301092200,"org.eclipse.jst.j2ee",1495071586956
started,bundle,org.eclipse.jst.j2ee.core,1.2.200.v201205030130,"org.eclipse.jst.j2ee.core",1495071586956
started,bundle,org.eclipse.jst.j2ee.navigator.ui,1.1.600.v201203142300,"org.eclipse.jst.j2ee.navigator.ui",1495071586956
started,bundle,org.eclipse.jst.j2ee.ui,1.1.600.v201205170400,"org.eclipse.jst.j2ee.ui",1495071586956
started,bundle,org.eclipse.jst.j2ee.webservice,1.1.400.v201004110600,"org.eclipse.jst.j2ee.webservice",1495071586956
started,bundle,org.eclipse.jst.j2ee.webservice.ui,1.1.500.v201105122000,"org.eclipse.jst.j2ee.webservice.ui",1495071586956
started,bundle,org.eclipse.jst.jee.ui,1.0.500.v201205170400,"org.eclipse.jst.jee.ui",1495071586956
started,bundle,org.eclipse.jst.ws.jaxrs.core,1.0.400.v201202152223,"org.eclipse.jst.ws.jaxrs.core",1495071586956
started,bundle,org.eclipse.jst.ws.jaxws.utils,1.0.200.v201201032002,"org.eclipse.jst.ws.jaxws.utils",1495071586956
started,bundle,org.eclipse.rse.connectorservice.local,2.1.400.201205062159,"org.eclipse.rse.connectorservice.local",1495071586956
started,bundle,org.eclipse.rse.core,3.3.2.201301152246,"org.eclipse.rse.core",1495071586956
started,bundle,org.eclipse.rse.files.ui,3.2.101.201302012126,"org.eclipse.rse.files.ui",1495071586956
started,bundle,org.eclipse.rse.services,3.2.200.201211090626,"org.eclipse.rse.services",1495071586956
started,bundle,org.eclipse.rse.services.local,2.1.401.201302062104,"org.eclipse.rse.services.local",1495071586956
started,bundle,org.eclipse.rse.subsystems.files.core,3.3.1.201211140039,"org.eclipse.rse.subsystems.files.core",1495071586956
started,bundle,org.eclipse.rse.subsystems.files.local,2.1.300.201205062159,"org.eclipse.rse.subsystems.files.local",1495071586956
started,bundle,org.eclipse.rse.subsystems.shells.core,3.1.300.201205141739,"org.eclipse.rse.subsystems.shells.core",1495071586956
started,bundle,org.eclipse.rse.subsystems.shells.local,2.1.400.201205062159,"org.eclipse.rse.subsystems.shells.local",1495071586956
started,bundle,org.eclipse.rse.ui,3.3.3.201302122026,"org.eclipse.rse.ui",1495071586956
started,bundle,org.eclipse.search,3.8.0.v20120523-1540,"org.eclipse.search",1495071586956
started,bundle,org.eclipse.team.core,3.6.100.v20120524-0627,"org.eclipse.team.core",1495071586956
started,bundle,org.eclipse.team.ui,3.6.201.v20130125-135424,"org.eclipse.team.ui",1495071586956
started,bundle,org.eclipse.ui,3.104.0.v20121024-145224,"org.eclipse.ui",1495071586956
started,bundle,org.eclipse.ui.console,3.5.100.v20120521-2012,"org.eclipse.ui.console",1495071586956
started,bundle,org.eclipse.ui.editors,3.8.0.v20120523-1540,"org.eclipse.ui.editors",1495071586956
started,bundle,org.eclipse.ui.forms,3.5.200.v20120705-114351,"org.eclipse.ui.forms",1495071586956
started,bundle,org.eclipse.ui.ide,3.8.2.v20121106-165923,"org.eclipse.ui.ide",1495071586956
started,bundle,org.eclipse.ui.navigator,3.5.200.v20120705-114103,"org.eclipse.ui.navigator",1495071586972
started,bundle,org.eclipse.ui.navigator.resources,3.4.400.v20120705-114010,"org.eclipse.ui.navigator.resources",1495071586972
started,bundle,org.eclipse.ui.net,1.2.101.v20120914-093638,"org.eclipse.ui.net",1495071586972
started,bundle,org.eclipse.ui.trace,1.0.1.v20121204-224553,"org.eclipse.ui.trace",1495071586972
started,bundle,org.eclipse.ui.views,3.6.100.v20120705-114010,"org.eclipse.ui.views",1495071586972
started,bundle,org.eclipse.ui.workbench,3.104.0.v20130204-164612,"org.eclipse.ui.workbench",1495071586972
started,bundle,org.eclipse.ui.workbench.texteditor,3.8.0.v20120523-1310,"org.eclipse.ui.workbench.texteditor",1495071586972
started,bundle,org.eclipse.update.configurator,3.3.200.v20120912-144026,"org.eclipse.update.configurator",1495071586972
started,bundle,org.eclipse.wst.common.core,1.2.0.v200908252030,"org.eclipse.wst.common.core",1495071586972
started,bundle,org.eclipse.wst.common.emf,1.2.100.v201101101900,"org.eclipse.wst.common.emf",1495071586972
started,bundle,org.eclipse.wst.common.emfworkbench.integration,1.2.101.v201107140600,"org.eclipse.wst.common.emfworkbench.integration",1495071586972
started,bundle,org.eclipse.wst.common.frameworks,1.2.200.v201203141800,"org.eclipse.wst.common.frameworks",1495071586972
started,bundle,org.eclipse.wst.common.frameworks.ui,1.2.201.v201208292200,"org.eclipse.wst.common.frameworks.ui",1495071586972
started,bundle,org.eclipse.wst.common.modulecore,1.2.201.v201301092200,"org.eclipse.wst.common.modulecore",1495071586972
started,bundle,org.eclipse.wst.common.project.facet.core,1.4.300.v201111030424,"org.eclipse.wst.common.project.facet.core",1495071586972
started,bundle,org.eclipse.wst.common.ui,1.1.500.v200911190730,"org.eclipse.wst.common.ui",1495071586972
started,bundle,org.eclipse.wst.jsdt.core,1.1.202.v201208171701,"org.eclipse.wst.jsdt.core",1495071586972
started,bundle,org.eclipse.wst.jsdt.manipulation,1.0.400.v201204261600,"org.eclipse.wst.jsdt.manipulation",1495071586972
started,bundle,org.eclipse.wst.jsdt.ui,1.1.202.v201208171701,"org.eclipse.wst.jsdt.ui",1495071586972
started,bundle,org.eclipse.wst.server.core,1.4.100.v20130117_1140,"org.eclipse.wst.server.core",1495071586972
started,bundle,org.eclipse.wst.server.ui,1.4.100.v20121112_1718,"org.eclipse.wst.server.ui",1495071586972
started,bundle,org.eclipse.wst.validation,1.2.402.v201212031633,"org.eclipse.wst.validation",1495071586972
started,bundle,org.eclipse.wst.web,1.1.600.v201204190200,"org.eclipse.wst.web",1495071586972
started,bundle,org.eclipse.wst.xml.core,1.1.702.v201301101836,"org.eclipse.wst.xml.core",1495071586972
started,bundle,org.eclipse.m2e.core,1.4.0.20130601-0317,"org.eclipse.m2e.core",1495071586972
started,bundle,org.eclipse.m2e.discovery,1.4.0.20130601-0317,"org.eclipse.m2e.discovery",1495071586972
started,bundle,org.eclipse.m2e.jdt,1.4.0.20130601-0317,"org.eclipse.m2e.jdt",1495071586972
started,bundle,org.eclipse.m2e.logback.configuration,1.4.0.20130601-0317,"org.eclipse.m2e.logback.configuration",1495071586972
started,bundle,org.eclipse.m2e.wtp,1.0.0.20130613-0136,"org.eclipse.m2e.wtp",1495071586972
started,bundle,org.eclipse.m2e.wtp.overlay,1.0.0.20130613-0136,"org.eclipse.m2e.wtp.overlay",1495071586972
started,bundle,com.collabnet.subversion.merge,3.0.13,"com.collabnet.subversion.merge",1495071586972
started,bundle,org.tigris.subversion.clientadapter,1.8.6,"org.tigris.subversion.clientadapter",1495071586972
started,bundle,org.tigris.subversion.clientadapter.javahl,1.7.10,"org.tigris.subversion.clientadapter.javahl",1495071586972
started,bundle,org.tigris.subversion.clientadapter.svnkit,1.7.9.2,"org.tigris.subversion.clientadapter.svnkit",1495071586972
started,bundle,org.tigris.subversion.subclipse.core,1.8.22,"org.tigris.subversion.subclipse.core",1495071586972
started,bundle,org.tigris.subversion.subclipse.mylyn,3.0.0,"org.tigris.subversion.subclipse.mylyn",1495071586972
started,bundle,org.tigris.subversion.subclipse.tools.usage,1.1.0,"org.tigris.subversion.subclipse.tools.usage",1495071586972
started,bundle,org.tigris.subversion.subclipse.ui,1.8.21,"org.tigris.subversion.subclipse.ui",1495071586972
started,bundle,org.eclipse.egit.core,1.1.0.201109151100-r,"org.eclipse.egit.core",1495071586972
started,bundle,org.eclipse.egit.ui,1.1.0.201109151100-r,"org.eclipse.egit.ui",1495071586972
started,bundle,org.eclipse.epp.usagedata.gathering,1.3.1.R201106061540,"org.eclipse.epp.usagedata.gathering",1495071586972
started,bundle,org.eclipse.epp.usagedata.recording,1.3.1.R201106061540,"org.eclipse.epp.usagedata.recording",1495071586972
started,bundle,org.eclipse.jgit,1.1.0.201109151100-r,"org.eclipse.jgit",1495071586988
started,bundle,org.eclipse.mylyn.bugzilla.core,3.6.2.v20110903-0100,"org.eclipse.mylyn.bugzilla.core",1495071586988
started,bundle,org.eclipse.mylyn.bugzilla.ui,3.6.0.v20110608-1400,"org.eclipse.mylyn.bugzilla.ui",1495071586988
started,bundle,org.eclipse.mylyn.commons.identity,0.8.0.v20110608-1400,"org.eclipse.mylyn.commons.identity",1495071586988
started,bundle,org.eclipse.mylyn.commons.net,3.6.0.v20110608-1400,"org.eclipse.mylyn.commons.net",1495071586988
started,bundle,org.eclipse.mylyn.commons.ui,3.6.1.v20110720-0100,"org.eclipse.mylyn.commons.ui",1495071586988
started,bundle,org.eclipse.mylyn.context.core,3.6.1.v20110720-0100,"org.eclipse.mylyn.context.core",1495071586988
started,bundle,org.eclipse.mylyn.context.ui,3.6.0.v20110608-1400,"org.eclipse.mylyn.context.ui",1495071586988
started,bundle,org.eclipse.mylyn.monitor.ui,3.6.0.v20110608-1400,"org.eclipse.mylyn.monitor.ui",1495071586988
started,bundle,org.eclipse.mylyn.tasks.ui,3.6.2.v20110826-0100,"org.eclipse.mylyn.tasks.ui",1495071586988
started,bundle,org.eclipse.mylyn.team.ui,3.6.1.v20110825-0100,"org.eclipse.mylyn.team.ui",1495071586988
started,bundle,org.eclipse.team.cvs.core,3.3.400.I20110510-0800,"org.eclipse.team.cvs.core",1495071586988
started,bundle,org.eclipse.team.cvs.ui,3.3.400.I20110510-0800,"org.eclipse.team.cvs.ui",1495071586988
started,bundle,com.adobe.flash.compiler,4.7.0.349722,"com.adobe.flash.compiler",1495071586988
started,bundle,com.adobe.flexbuilder.DCDService,4.7.0.349722,"com.adobe.flexbuilder.DCDService",1495071586988
started,bundle,com.adobe.flexbuilder.dcrad,4.7.0.349722,"com.adobe.flexbuilder.dcrad",1495071586988
started,bundle,com.adobe.flexbuilder.debug.ui,4.7.0.349722,"com.adobe.flexbuilder.debug.ui",1495071586988
started,bundle,com.adobe.flexbuilder.editors.derived,4.7.0.349722,"com.adobe.flexbuilder.editors.derived",1495071586988
started,bundle,com.adobe.flexbuilder.exportimport,4.7.0.349722,"com.adobe.flexbuilder.exportimport",1495071586988
started,bundle,com.adobe.flexbuilder.flashbridge,4.7.0.349722,"com.adobe.flexbuilder.flashbridge",1495071586988
started,bundle,com.adobe.flexbuilder.multisdk,4.7.0.349722,"com.adobe.flexbuilder.multisdk",1495071586988
started,bundle,com.adobe.flexbuilder.mxmlmodel,4.7.0.349722,"com.adobe.flexbuilder.mxmlmodel",1495071586988
started,bundle,com.adobe.flexbuilder.project,4.7.0.349722,"com.adobe.flexbuilder.project",1495071586988
started,bundle,com.adobe.flexbuilder.project.ui,4.7.0.349722,"com.adobe.flexbuilder.project.ui",1495071586988
started,bundle,com.adobe.flexbuilder.utils.osnative,4.7.0.349722,"com.adobe.flexbuilder.utils.osnative",1495071586988
started,bundle,com.adobe.flexide.amt,4.7.0.349722,"com.adobe.flexide.amt",1495071586988
started,bundle,com.adobe.flexide.editorcore,4.7.0.349722,"com.adobe.flexide.editorcore",1495071586988
started,bundle,com.adobe.flexide.nativelibs,4.7.0.349722,"com.adobe.flexide.nativelibs",1495071586988
started,bundle,org.eclipse.equinox.event,1.2.100.v20110502,"org.eclipse.equinox.event",1495071586988
started,bundle,org.eclipse.update.core,3.2.500.v20110330,"org.eclipse.update.core",1495071586988
started,bundle,org.eclipse.update.scheduler,3.2.300.v20100512,"org.eclipse.update.scheduler",1495071586988
started,bundle,org.eclipse.wb.discovery.core,1.1.0.r37x201109091028,"org.eclipse.wb.discovery.core",1495071586988
started,bundle,org.eclipse.wb.discovery.ui,1.1.0.r37x201109091028,"org.eclipse.wb.discovery.ui",1495071586988
os,sysinfo,,,"win32",1495071586988
arch,sysinfo,,,"x86_64",1495071586988
ws,sysinfo,,,"win32",1495071586988
locale,sysinfo,,,"en_US",1495071586988
processors,sysinfo,,,"8",1495071586988
java.runtime.name,sysinfo,,,"Java(TM) SE Runtime Environment",1495071586988
java.runtime.version,sysinfo,,,"1.6.0_71-b10",1495071586988
java.specification.name,sysinfo,,,"Java Platform API Specification",1495071586988
java.specification.vendor,sysinfo,,,"Sun Microsystems Inc.",1495071586988
java.specification.version,sysinfo,,,"1.6",1495071586988
java.vendor,sysinfo,,,"Oracle Corporation",1495071586988
java.version,sysinfo,,,"1.6.0_71",1495071586988
java.vm.info,sysinfo,,,"compiled mode",1495071586988
java.vm.name,sysinfo,,,"Oracle JRockit(R)",1495071586988
java.vm.specification.name,sysinfo,,,"Java Virtual Machine Specification",1495071586988
java.vm.specification.vendor,sysinfo,,,"Sun Microsystems Inc.",1495071586988
java.vm.specification.version,sysinfo,,,"1.0",1495071586988
java.vm.vendor,sysinfo,,,"Oracle Corporation",1495071586988
java.vm.version,sysinfo,,,"R28.3.1-12-159557-1.6.0_71-20131209-2113-windows-x86_64",1495071586988
started,bundle,org.eclipse.wb.core.lib,1.1.0.r37x201109091012,"org.eclipse.wb.core.lib",1495071587222
started,bundle,org.eclipse.wb.core,1.1.0.r37x201109091012,"org.eclipse.wb.core",1495071587238
started,bundle,org.eclipse.m2e.editor.xml,1.4.0.20130601-0317,"org.eclipse.m2e.editor.xml",1495071588248
started,bundle,org.eclipse.wst.sse.core,1.1.702.v201301241617,"org.eclipse.wst.sse.core",1495071588264
started,bundle,org.eclipse.jst.servlet.ui,1.1.600.v201202011057,"org.eclipse.jst.servlet.ui",1495071588436
started,bundle,org.eclipse.wst.common.uriresolver,1.2.0.v201203071939,"org.eclipse.wst.common.uriresolver",1495071588451
started,bundle,org.eclipse.m2e.core.ui,1.4.0.20130601-0317,"org.eclipse.m2e.core.ui",1495071588529
started,bundle,org.eclipse.jst.jee,1.0.501.v201301091334,"org.eclipse.jst.jee",1495071589550
started,bundle,org.eclipse.jst.server.core,1.2.302.v20120503_1042,"org.eclipse.jst.server.core",1495071589550
started,bundle,org.eclipse.wst.dtd.core,1.1.600.v201205171933,"org.eclipse.wst.dtd.core",1495071589888
started,bundle,org.eclipse.jst.jee.ejb,1.0.301.v201007070821,"org.eclipse.jst.jee.ejb",1495071589904
started,bundle,org.eclipse.jst.j2ee.ejb,1.1.601.v201210040812,"org.eclipse.jst.j2ee.ejb",1495071589926
started,bundle,org.eclipse.jst.j2ee.jca,1.1.600.v201111012200,"org.eclipse.jst.j2ee.jca",1495071589931
started,bundle,org.eclipse.jst.j2ee.web,1.1.601.v201212130700,"org.eclipse.jst.j2ee.web",1495071589939
started,bundle,org.eclipse.jst.jee.web,1.0.301.v201007070907,"org.eclipse.jst.jee.web",1495071589939
started,bundle,org.eclipse.m2e.wtp.jpa,1.0.0.e42-20130613-0136,"org.eclipse.m2e.wtp.jpa",1495071593742
started,bundle,org.eclipse.jpt.common.core,1.2.2.v201301082148,"org.eclipse.jpt.common.core",1495071593742
started,bundle,org.eclipse.jpt.jpa.core,3.2.2.v201301092252,"org.eclipse.jpt.jpa.core",1495071593758
started,bundle,org.jboss.tools.maven.apt.core,1.0.1.201209200721,"org.jboss.tools.maven.apt.core",1495071593758
started,bundle,org.eclipse.xsd,2.8.1.v20130125-0826,"org.eclipse.xsd",1495071595449
started,bundle,org.eclipse.m2e.wtp.jaxrs,1.0.0.20130613-0136,"org.eclipse.m2e.wtp.jaxrs",1495071596091
started,bundle,org.eclipse.m2e.wtp.jsf,1.0.0.20130613-0136,"org.eclipse.m2e.wtp.jsf",1495071596091
started,bundle,org.eclipse.wst.html.core,1.1.602.v201301032305,"org.eclipse.wst.html.core",1495071596295
started,bundle,org.eclipse.jst.jsf.common,1.3.0.v201301161500,"org.eclipse.jst.jsf.common",1495071596295
started,bundle,org.eclipse.jst.jsf.core,1.5.0.v201301161500,"org.eclipse.jst.jsf.core",1495071596310
started,bundle,org.eclipse.jst.jsp.core,1.2.502.v201301101836,"org.eclipse.jst.jsp.core",1495071596326
started,bundle,org.eclipse.wst.wsdl.validation,1.1.600.v201203081939,"org.eclipse.wst.wsdl.validation",1495071596373
started,bundle,org.eclipse.wst.xsd.core,1.1.700.v201204102147,"org.eclipse.wst.xsd.core",1495071596373
